<?xml version="1.0" encoding="UTF-8"?>
<svg width="154px" height="54px" viewBox="0 0 154 54" version="1.1" xmlns="http://www.w3.org/2000/svg" xmlns:xlink="http://www.w3.org/1999/xlink">
    <!-- Generator: Sketch 48.2 (47327) - http://www.bohemiancoding.com/sketch -->
    <title>Page 1 Copy 4</title>
    <desc>Created with Sketch.</desc>
    <defs>
        <polygon id="path-1" points="3.53082109 15.7856604 3.53082109 0.0761446531 0.0820596722 0.0761446531 0.0820596722 15.7856604 3.53082109 15.7856604"></polygon>
        <polygon id="path-3" points="0 53.9165823 153.39157 53.9165823 153.39157 0 0 0"></polygon>
    </defs>
    <g id="Wulpdal-Homepage-1440px---Home-v0.4" stroke="none" stroke-width="1" fill="none" fill-rule="evenodd" transform="translate(-77.000000, -12.000000)">
        <g id="Group-22">
            <g id="Page-1-Copy-4" transform="translate(77.000000, 12.000000)">
                <path d="M70.6135119,35.5582313 L68.998144,35.5582313 L65.9420032,23.7044106 L65.9201788,23.7044106 L62.9076867,35.5582313 L61.2923188,35.5582313 L58.1488805,21.897719 L57.0358371,21.8316339 L57.0358371,20.9064434 L60.5939386,20.9064434 L60.5939386,21.7435206 L59.9610316,21.8316339 C59.5896534,21.8756906 59.4150583,22.0078607 59.4150583,22.3382859 C59.4150583,22.4484277 59.4368827,22.6246544 59.4808952,22.8229096 L62.1438334,34.5005035 L62.1874822,34.5005035 L65.2432592,22.1620592 L66.6189227,22.1620592 L69.8056461,34.5005035 L69.8278342,34.5005035 L72.7090162,21.897719 L71.6177972,21.8316339 L71.6177972,20.9064434 L74.848533,20.9064434 L74.848533,21.7435206 L74.3462085,21.8096056 C73.9315453,21.8536623 73.7787746,22.0519174 73.6041796,22.7788529 L70.6135119,35.5582313 Z" id="Fill-1" fill="#FFFFFF"></path>
                <path d="M88.3174133,33.9939249 C88.3174133,34.4785486 88.4047108,34.632747 88.8193741,34.6547753 L89.4526449,34.698832 L89.4526449,35.5583047 L87.2258305,35.5583047 L87.2258305,33.9498682 L87.1821818,33.9498682 C86.3746797,35.2939646 85.0212043,35.8667016 83.7113777,35.8667016 C81.3321565,35.8667016 80.1536399,34.632747 80.1536399,32.23129 L80.1536399,26.3262245 C80.1536399,25.8195725 80.0441543,25.7094307 79.6076666,25.6874024 L78.9529352,25.6433457 L78.9529352,24.717788 L81.244859,24.717788 L81.244859,31.6802142 C81.244859,33.8176982 81.7908322,34.8310021 83.7550265,34.8310021 C86.0251258,34.8310021 87.2258305,33.0463389 87.2258305,31.349789 L87.2258305,26.3262245 C87.2258305,25.7975441 87.095248,25.7094307 86.6583966,25.6874024 L86.0251258,25.6433457 L86.0251258,24.717788 L88.3174133,24.717788 L88.3174133,33.9939249 Z" id="Fill-3" fill="#FFFFFF"></path>
                <path d="M97.3114589,34.5446336 L98.4685149,34.6110858 L98.4685149,35.5583047 L95.0850083,35.5583047 L95.0850083,34.7208604 L95.6306179,34.6547753 C96.0456448,34.6110858 96.2202399,34.4785486 96.2202399,33.9274728 L96.2202399,21.4572255 C96.2202399,20.928178 96.0892936,20.8400646 95.6742666,20.8180363 L95.0195352,20.7739796 L95.0195352,19.848789 L97.3114589,19.848789 L97.3114589,34.5446336 Z" id="Fill-5" fill="#FFFFFF"></path>
                <path d="M106.109049,33.5310727 C106.829253,34.3905453 108.095431,34.8311123 109.077892,34.8311123 C111.500762,34.8311123 112.482859,32.5838537 112.482859,30.0502267 C112.482859,27.0532701 111.566235,25.4452007 109.405258,25.4452007 C107.047497,25.4452007 106.109049,27.1417506 106.109049,28.815905 L106.109049,33.5310727 Z M105.017466,26.3263346 C105.017466,25.841711 104.908344,25.7091737 104.471856,25.6875125 L103.816761,25.6434558 L103.816761,24.7178981 L106.021751,24.7178981 L106.021751,26.2161929 L106.0654,26.2161929 C106.982024,24.7178981 108.357687,24.3874729 109.492555,24.3874729 C112.57052,24.3874729 113.683564,26.6567598 113.683564,30.1159446 C113.683564,34.2139514 111.282518,35.8664446 109.187014,35.8664446 C107.855363,35.8664446 106.894726,35.3597926 106.152698,34.7870556 L106.109049,34.7870556 L106.109049,39.105713 L107.702592,39.1938264 L107.702592,40.119017 L103.882598,40.119017 L103.882598,39.2819398 L104.428208,39.2154876 C104.843235,39.1714309 105.017466,39.039628 105.017466,38.4885522 L105.017466,26.3263346 Z" id="Fill-7" fill="#FFFFFF"></path>
                <path d="M126.9342,31.7244178 L126.9342,26.0620311 C126.366403,25.7532671 125.559264,25.4448703 124.227613,25.4448703 C121.651973,25.4448703 120.56039,27.6040154 120.56039,30.4243781 C120.56039,32.5838904 121.149648,34.831149 123.659816,34.831149 C125.864806,34.831149 126.9342,33.2227125 126.9342,31.7244178 M128.50592,34.6545551 L129.160651,34.6989789 L129.160651,35.5580844 L127.021498,35.5580844 L127.021498,34.1699314 L126.956389,34.1482702 C126.082686,35.5140277 124.773223,35.8664813 123.616167,35.8664813 C121.040526,35.8664813 119.359685,34.3021015 119.359685,30.4908303 C119.359685,26.7008532 121.149648,24.3875096 124.314911,24.3875096 C125.449779,24.3875096 126.279469,24.6077931 126.9342,24.8941616 L126.9342,21.4570052 C126.9342,20.9503532 126.825078,20.8402115 126.388591,20.8181831 L125.733496,20.7741264 L125.733496,19.8485687 L128.025783,19.8485687 L128.025783,33.9500151 C128.025783,34.4346387 128.069432,34.6328939 128.50592,34.6545551" id="Fill-9" fill="#FFFFFF"></path>
                <path d="M142.302202,25.8856942 C141.865714,25.6874391 141.0142,25.4451273 139.857144,25.4451273 C136.86684,25.4451273 135.928391,27.9126693 135.928391,30.4907202 C135.928391,32.6058086 136.539474,34.8310388 139.005993,34.8310388 C141.145146,34.8310388 142.302202,33.3327441 142.302202,31.6802509 L142.302202,25.8856942 Z M143.393785,34.0600467 C143.393785,34.4785853 143.502907,34.6327837 143.852097,34.6548121 L144.594489,34.6988688 L144.594489,35.5583414 L142.389499,35.5583414 L142.389499,34.1698213 L142.32439,34.1481601 C141.822066,34.9411806 140.839605,35.8667383 139.005993,35.8667383 C136.080798,35.8667383 134.727687,33.8838199 134.727687,30.6008619 C134.727687,26.7011102 136.408528,24.3873995 139.900793,24.3873995 C140.81778,24.3873995 142.302202,24.6080501 143.393785,25.048617 L143.393785,34.0600467 Z" id="Fill-11" fill="#FFFFFF"></path>
                <g id="Group-15" transform="translate(149.860749, 19.772644)">
                    <mask id="mask-2" fill="white">
                        <use xlink:href="#path-1"></use>
                    </mask>
                    <g id="Clip-14"></g>
                    <path d="M2.37398341,14.7719893 L3.53103933,14.8384415 L3.53103933,15.7856604 L0.147532815,15.7856604 L0.147532815,14.948216 L0.693142338,14.882131 C1.10816931,14.8384415 1.28276436,14.7059042 1.28276436,14.1548284 L1.28276436,1.68458113 C1.28276436,1.15553366 1.15181808,1.06742027 0.736791099,1.04539192 L0.0820596722,1.00133523 L0.0820596722,0.0761446531 L2.37398341,0.0761446531 L2.37398341,14.7719893 Z" id="Fill-13" fill="#FFFFFF" mask="url(#mask-2)"></path>
                </g>
                <path d="M17.348746,39.7777979 C16.0596526,40.6115708 14.768013,41.4409381 13.4763733,42.2714068 C13.4552764,42.2853581 13.4309059,42.2960051 13.3887121,42.3187677 C13.3836197,42.264064 13.3763449,42.2225773 13.3763449,42.1814577 C13.3752537,41.7129882 13.3719801,41.2452529 13.3799823,40.7771506 C13.3810735,40.7147369 13.4185387,40.6288264 13.4716447,40.5943153 C14.7447336,39.756871 16.0225511,38.9249337 17.2992774,38.0922622 C17.3203743,38.0786781 17.3440174,38.068031 17.3887574,38.044167 C17.4887858,38.5867986 17.5146113,39.1107061 17.4393172,39.6364493 C17.4320424,39.6871145 17.3938497,39.7487939 17.348746,39.7777979 Z M13.3774361,42.8915047 C14.6625284,42.0647075 15.9476207,41.2371759 17.2512638,40.3978959 C16.792588,41.9589714 15.1975895,42.9293201 13.3774361,42.8915047 Z M13.3708888,39.4448027 C13.3719801,39.1345702 13.3701614,38.8243376 13.3796186,38.5144722 C13.3810735,38.4601356 13.4156288,38.3863406 13.4618238,38.3562352 C14.5483142,37.6472896 15.638442,36.9431168 16.7278424,36.2385768 C16.7405732,36.2308669 16.7562141,36.2268283 16.8173223,36.2025972 C16.9693655,36.6372899 17.1192263,37.0561956 17.2563561,37.4784056 C17.2683595,37.5154866 17.2087062,37.590383 17.1614201,37.6212227 C16.2931734,38.1924912 15.4209257,38.7589868 14.5504966,39.3265839 C14.2114912,39.5476017 13.8735771,39.770088 13.5352992,39.9911057 C13.4927416,40.018274 13.4476379,40.0417709 13.3705251,40.0858276 C13.3705251,39.8530614 13.3701614,39.6485649 13.3708888,39.4448027 Z M13.3705251,32.9497446 C13.3719801,32.5712241 13.3774361,32.1930708 13.3730713,31.8149176 C13.3723438,31.7198285 13.4047166,31.6607191 13.4945603,31.6122568 C13.6378738,31.5351575 13.7739124,31.4470442 13.9306842,31.3530565 C14.1816646,31.7536053 14.4260976,32.1438742 14.6821704,32.5521329 C14.2547763,32.8208787 13.831747,33.0866875 13.3705251,33.3767274 C13.3705251,33.2100462 13.3701614,33.080079 13.3705251,32.9497446 Z M13.3861659,30.5570989 C13.3952594,30.5526933 13.4039891,30.5479205 13.4130826,30.5438819 C13.4992889,30.6782548 13.5851315,30.8126278 13.6793401,30.9594834 C13.5811304,31.0185928 13.4941966,31.0703594 13.3861659,31.135343 L13.3861659,30.5570989 Z M15.6166176,34.0970543 C14.8767711,34.5937935 14.1438357,35.0853928 13.3890758,35.5920448 C13.383256,35.5241241 13.3763449,35.4819031 13.3759812,35.4400492 C13.3752537,34.9770868 13.3737988,34.5144915 13.3781636,34.0518962 C13.3785274,33.998661 13.393077,33.9215618 13.4327246,33.8958621 C13.9215907,33.5801224 14.4159129,33.2720927 14.925876,32.9512131 C15.1583056,33.3367092 15.3834605,33.7100897 15.6166176,34.0970543 Z M15.8585045,34.5144915 C15.9530768,34.6775013 16.0487404,34.8401439 16.1418577,35.0035208 C16.2688029,35.2267414 16.3902919,35.4517977 16.521602,35.6720811 C16.5699793,35.7543203 16.5576122,35.7976427 16.4714059,35.8516122 C16.2506159,35.9892893 16.0356457,36.1346764 15.8174019,36.2756578 L15.8155832,36.2697836 L15.5325938,36.4540875 C15.5089507,36.4684059 15.4856713,36.4827243 15.4620283,36.4966756 C15.4143784,36.5253124 15.3732758,36.5524807 15.339448,36.5800162 L14.6454327,37.0315973 C14.5068479,37.1031894 14.3817214,37.1979113 14.2529576,37.286759 L14.0947308,37.3899251 C13.8612099,37.5283365 13.638965,37.6829021 13.3836197,37.8484818 L13.3836197,36.4676716 L13.383256,36.4676716 L13.3847109,36.2455524 C13.3956231,36.1952544 13.4203574,36.1401835 13.4592776,36.1141166 C14.2354981,35.5861706 15.0168109,35.0640988 15.7970325,34.5409255 C15.8097634,34.5324813 15.8257679,34.5280756 15.8585045,34.5144915 Z M12.8878425,37.841139 C12.8161858,37.7992852 12.7732645,37.7768897 12.7328894,37.7508228 C12.6281324,37.6832692 12.5241029,37.6153485 12.4197096,37.5474277 L12.2683939,37.4431602 L11.5449156,36.9820335 L11.5452794,36.9820335 L11.242648,36.7852469 L11.2401018,36.7874498 L10.8563564,36.5429351 C10.8348958,36.5223753 10.8097977,36.5032841 10.7806986,36.4849271 C10.4173226,36.2536295 10.0568566,36.0186605 9.67638488,35.7723101 C9.92118169,35.3423902 10.1587037,34.9242187 10.402773,34.4954003 C10.8287122,34.7814016 11.2361006,35.0574902 11.647854,35.3280718 C11.7431538,35.3908526 11.8522757,35.4360107 11.9548503,35.4892459 C11.9919517,35.5087042 12.0323268,35.5255926 12.0650634,35.5498238 C12.3062228,35.7304563 12.5488372,35.9088859 12.7827218,36.096494 C12.8314629,36.1350436 12.8700193,36.2062685 12.8740204,36.2650108 C12.8856601,36.4353634 12.8783853,36.6064502 12.8783853,36.7936911 C12.8798403,36.793324 12.8809315,36.7925897 12.8823864,36.7918554 L12.8783853,37.5022696 L12.8878425,37.5228294 L12.8878425,37.841139 Z M9.02601833,40.4052386 C10.3125656,41.2331374 11.5994766,42.0610361 12.8863876,42.8889348 C11.4136056,42.9575898 9.58617744,42.2196402 9.02601833,40.4052386 Z M8.80959322,39.5861513 C8.74048268,39.1147446 8.76958186,38.6437052 8.84123858,38.1745014 C8.84742215,38.1359518 8.85942556,38.0988707 8.87506637,38.0335199 C9.12895666,38.1983654 9.3621138,38.3488924 9.59454346,38.5005209 C10.6453874,39.1859696 11.6955039,39.8728869 12.748894,40.5550314 C12.8423751,40.6156094 12.8827502,40.6758202 12.8812952,40.7822905 C12.8743842,41.240113 12.8783853,41.6979355 12.8783853,42.1561251 L12.8783853,42.319502 C12.8052736,42.2765467 12.755805,42.2493784 12.7088826,42.219273 C11.4496158,41.4097313 10.1896216,40.6012909 8.93435593,39.7866092 C8.87106523,39.7458568 8.82050541,39.6581105 8.80959322,39.5861513 Z M9.01365118,37.3980021 C9.15841958,37.0025933 9.2970044,36.6057159 9.44722889,36.1838731 C9.57490151,36.2646437 9.67092879,36.3237531 9.76513737,36.3850653 C10.7581467,37.0268245 11.7497011,37.6707865 12.7452566,38.3096086 C12.8449213,38.3734908 12.8831139,38.4392087 12.8812952,38.5504518 C12.8740204,39.0475582 12.8783853,39.5442974 12.8783853,40.0729777 C12.8190957,40.0414038 12.7812668,40.0245154 12.7481665,40.0028542 C11.5343672,39.2109351 10.3216591,38.4171803 9.10494984,37.6285655 C9.00383021,37.5628476 8.97509478,37.5037382 9.01365118,37.3980021 Z M11.3281268,32.9438703 C11.4990844,33.051075 11.6580387,33.1509368 11.8173567,33.2507986 C12.1381751,33.4519909 12.4608121,33.6513474 12.7783569,33.8565782 C12.8238244,33.8859493 12.8732929,33.9450587 12.8736567,33.9913182 C12.8805677,34.5126558 12.8780216,35.0339933 12.8780216,35.5913105 C12.1210793,35.0835571 11.3885076,34.5926921 10.64175,34.0919144 C10.8745434,33.7023798 11.0964246,33.3312021 11.3281268,32.9438703 Z M12.3178625,31.3413081 C12.4942762,31.4474113 12.6579591,31.5406646 12.8150946,31.6423622 C12.8478312,31.6632891 12.8751116,31.71322 12.8754754,31.7499339 C12.8794765,32.2760443 12.8780216,32.8021546 12.8780216,33.3653461 C12.4284393,33.0833832 12.0072288,32.819043 11.5707411,32.5451573 C11.8199028,32.1442413 12.0650634,31.7495668 12.3178625,31.3413081 Z M12.8667456,30.4774297 L12.8667456,31.1239617 C12.7619886,31.0622824 12.6706899,31.0079458 12.5681154,30.9473678 C12.6641426,30.7964736 12.7539863,30.6547579 12.8667456,30.4774297 Z M16.9479049,35.6206817 C16.6256315,35.025182 16.2818975,34.4384937 15.9337986,33.8551096 C15.3532701,32.8825581 14.766558,31.9122094 14.1707524,30.9466335 C13.8983114,30.5053323 13.5974987,30.0783495 13.3097806,29.644024 C13.2079335,29.4901927 13.0216987,29.4890912 12.923489,29.6421883 C12.6452282,30.0754124 12.3586013,30.504598 12.0905252,30.9433293 C11.372503,32.1174402 10.6552084,33.2919182 9.95319078,34.4741062 C9.64837693,34.9869995 9.36138632,35.5109071 9.10494984,36.0450945 C8.91325903,36.4445418 8.76121585,36.8627133 8.62990582,37.2823533 C8.3363679,38.2240651 8.24870663,39.1819311 8.4876836,40.1445699 C8.85215077,41.6156963 9.80260255,42.6293674 11.3972373,43.0941655 C12.4153447,43.3915482 13.4610963,43.3952196 14.4981181,43.1833803 C15.7479277,42.9285858 16.7074729,42.2967394 17.3218293,41.2643442 C17.7375837,40.5649442 17.901994,39.8075362 17.896538,39.0163514 C17.8812609,37.8150722 17.5266147,36.6901579 16.9479049,35.6206817 Z" id="Fill-16" fill="#FFFFFF"></path>
                <path d="M35.367355,16.4321924 C35.2400461,16.8749621 35.1131009,17.3180991 34.9857921,17.7608688 C34.9319586,17.9495783 34.8715778,18.1368193 34.8261103,18.3273645 C34.7984661,18.4437476 34.8275653,18.4955142 34.9748799,18.4654088 C35.2240415,18.4140093 35.3400745,18.2737622 35.3953629,18.0299818 C35.5164883,17.4965287 35.4150049,16.9689498 35.367355,16.4321924 M34.1924758,19.0388801 C33.5715722,19.1644417 32.9575796,19.2378695 32.3475881,19.0542999 C32.4468891,18.8938601 32.4465253,18.9026715 32.8626435,18.9243327 C33.0536069,18.9342455 33.2438427,19.0330059 33.446082,18.9393854 C33.374789,18.8703632 33.2591198,18.9026715 33.1874631,18.7767428 C33.507554,18.7433331 33.824735,18.9426897 34.1262752,18.7363575 C33.940768,18.6779823 33.7599893,18.6871608 33.5832118,18.6669682 C33.5250135,18.6603597 33.4373522,18.6695381 33.4398984,18.5832605 C33.4424446,18.5017556 33.5311971,18.5057941 33.5886679,18.4991856 C33.7461672,18.4811958 33.9018478,18.5087312 34.0542547,18.5447108 C34.2659512,18.5946418 34.3943513,18.5193782 34.4700092,18.3115775 C34.7540899,17.5314069 34.9948855,16.7380192 35.2025809,15.9339846 C35.242956,15.7779505 35.2480484,15.6186121 35.216403,15.4636794 C35.1592959,15.1809822 35.2989719,14.9045265 35.2200404,14.6177908 C35.129833,14.2903027 35.1149196,14.2969113 34.7842803,14.248816 C34.1553744,14.1566641 33.5457467,13.9863116 33.012868,13.6107282 C32.9874062,13.5931056 32.9626719,13.5714444 32.9343003,13.560063 C31.8750903,13.1334474 31.2709187,12.3095872 31.0250307,11.224324 C30.8824447,10.5965161 31.031578,9.96687249 31.249458,9.36549862 C31.3520326,9.08243436 31.4778866,8.80854858 31.4411489,8.49574605 C31.4375115,8.4652735 31.4469687,8.43296526 31.4524248,8.40212557 C31.4811602,8.24829428 31.6437519,8.09519727 31.4887988,7.93879601 C31.2952892,7.74311086 31.0905038,7.53604439 30.8006033,7.51438319 C29.7373922,7.43508114 28.6832746,7.46445227 27.6888103,7.91676766 C27.2974264,8.09483013 26.9074975,8.28647675 26.6586995,8.67050427 C26.6234168,8.72484086 26.5710383,8.81295425 26.4939254,8.75384485 C26.4277248,8.70244537 26.4728285,8.61763623 26.5110212,8.55999539 C26.6885262,8.29308525 26.9260482,8.08932304 27.1864858,7.90832346 C27.8655878,7.43544827 28.6428995,7.26876712 29.4405806,7.15421971 C29.9130785,7.08629897 30.3910324,7.05692784 30.8573467,6.93944333 C31.0210295,6.89758947 31.1683441,6.83334012 31.2978354,6.72686978 C31.463337,6.59139544 31.6481167,6.49190074 31.84199,6.40488877 C32.1344367,6.27271869 32.8080826,6.34027229 32.951396,6.59543397 C33.1016205,6.86344553 33.3391425,7.10502307 33.3402337,7.45123526 C33.3424162,8.01002099 33.3526009,8.56770531 33.2507538,9.12061683 C33.1983753,9.40294681 33.3056785,9.51822849 33.5908504,9.49069306 C34.2488555,9.42681085 34.8788526,9.5887192 35.5204894,9.69555669 C36.1177499,9.79541853 36.6495374,10.0325904 37.0682017,10.4294678 C37.552703,10.8883917 38.1055873,11.221754 38.655198,11.5742076 C38.7795969,11.6538767 38.9472809,11.7056434 38.9669229,11.9002271 C38.9694691,11.9266611 39.0400346,11.9512594 39.0825921,11.9670464 C39.6329302,12.1722772 40.1832684,12.3756722 40.7336065,12.5801687 C40.8434559,12.620554 40.9409381,12.6613065 41.0162322,12.7729168 C41.1391763,12.9550178 41.3676048,12.9135311 41.5494746,12.9656648 C41.6826033,13.0034801 41.8295542,12.9906303 41.9692302,13.0064173 C42.0565277,13.0159629 42.1558287,13.0361555 42.170742,13.1378531 C42.1878378,13.2575404 42.074351,13.269656 41.9965107,13.2891144 C41.8099122,13.3361082 41.6204039,13.372455 41.3872467,13.422753 C41.6134928,13.5108664 41.8008187,13.5824585 41.9866897,13.6569878 C42.0416144,13.6790161 42.1336405,13.6878275 42.1096337,13.7693323 C42.0889006,13.8409245 42.0274286,13.900401 41.9288551,13.8827783 C41.7287983,13.8453301 41.5283777,13.8093505 41.3275934,13.7799794 C40.4644391,13.6533164 39.5951013,13.5787871 38.7399493,13.7906264 C38.1314128,13.9415206 37.5323336,14.129863 36.9045189,14.1779582 C36.6007962,14.2010879 36.2952549,14.1948466 35.9908048,14.2084307 C35.5815977,14.227522 35.445559,14.4738723 35.6714414,14.8244902 C35.7936579,15.0146682 35.8274857,15.1868565 35.7572839,15.4001643 C35.6732601,15.6586302 35.6772612,15.9266418 35.6969031,16.1975905 C35.7383695,16.7578448 35.6838085,17.320669 35.7456443,17.8812905 C35.7623763,18.0325518 35.7849281,18.1371864 35.956977,18.1610505 C36.0289975,18.1713304 36.1341182,18.2139185 36.1181137,18.302399 C36.1024729,18.3883096 35.9988071,18.3493928 35.9351526,18.3431515 C35.8100262,18.3317702 35.7416431,18.3780297 35.7245474,18.5050598 C35.7067241,18.6405342 35.6176079,18.6607268 35.4950276,18.6864265 C35.3091566,18.7242419 35.0778182,18.6148344 34.9417796,18.8369536 C34.6180512,18.7547144 34.5794948,19.0855068 34.4161757,19.2239182 C34.1248202,19.47137 33.7905435,19.6431911 33.4759086,19.8495233 C33.4380797,19.8741216 33.391521,19.9156083 33.3511459,19.8704502 C33.3002224,19.8135436 33.348236,19.7628784 33.3907936,19.7313045 C33.5235585,19.6329112 33.6603247,19.5403921 33.7959996,19.4467717 C33.9502252,19.3406685 34.0997222,19.2294253 34.1924758,19.0388801" id="Fill-18" fill="#FFFFFF"></path>
                <polygon id="Fill-20" fill="#FFFFFF" points="22.5839057 53.3805959 22.5337097 0.86318078 23.5809162 0.861712224 23.631476 53.3787602"></polygon>
                <mask id="mask-4" fill="white">
                    <use xlink:href="#path-3"></use>
                </mask>
                <g id="Clip-23"></g>
                <polygon id="Fill-22" fill="#FFFFFF" mask="url(#mask-4)" points="0.523785142 25.6123592 45.6395091 25.6123592 45.6395091 24.5546314 0.523785142 24.5546314"></polygon>
                <path d="M23.411559,1.05791137 L2.85190098,1.05864565 C1.25835743,1.05864565 1.05684565,1.26424355 1.05575443,2.89323982 L1.05466321,11.4141716 C1.05357199,18.2304765 1.05284451,25.0464142 1.04738841,31.8641876 C1.04229606,37.4839861 3.08360315,42.331691 7.11493005,46.2732966 C12.845285,51.8740038 19.9182031,53.9182344 28.1354463,52.3424734 C38.4321892,50.3735063 45.8015551,41.4454172 45.6586054,31.113021 C45.5673068,24.6168614 45.5898586,18.0131301 45.6109555,11.6271123 C45.6211402,8.70284922 45.6309612,5.77932043 45.6305975,2.85579163 C45.6305975,1.32702434 45.3665225,1.05791137 43.8671875,1.05791137 L30.2302231,1.05717709 L23.411559,1.05791137 Z M22.9052334,53.9167659 C16.6114457,53.9167659 11.0724178,51.6126008 6.38635946,47.0329074 C2.14297234,42.8846025 -0.00563796507,37.7810017 0.000181869841,31.8627191 C0.00527422539,25.0456799 0.00636544443,18.2297422 0.00709292379,11.4141716 L0.00854788252,2.89323982 C0.00927536189,0.676820964 0.673827761,0.000917847795 2.85190098,0.000917847795 L43.8675512,0.000183569559 C45.9423224,0.00165212603 46.677804,0.748045953 46.677804,2.85579163 C46.6781678,5.78078898 46.6683468,8.70505206 46.6585258,11.6300494 C46.6374289,18.0123958 46.6152408,24.6109872 46.7061757,31.0987026 C46.8560365,41.9450935 39.1280232,51.3166867 28.3304107,53.3814771 C26.4655174,53.7387034 24.6562762,53.9167659 22.9052334,53.9167659 Z" id="Fill-24" fill="#FFFFFF" mask="url(#mask-4)"></path>
                <path d="M5.62843509,13.9095428 C5.8412228,13.9095428 6.10384285,13.8482305 6.4177502,13.6709023 C6.62180816,13.5552535 6.85060042,13.3481871 7.11576665,13.1080781 C7.56316646,12.7031236 8.17752278,12.149845 8.58309252,12.2144615 C8.73077083,12.2379584 8.85989842,12.3499358 8.97811382,12.5566351 C9.05231671,12.6873366 9.21745453,12.7313933 9.34658212,12.656497 C9.47534596,12.5816006 9.5197222,12.4149194 9.44551931,12.284585 C9.24364379,11.9313972 8.98247869,11.7269007 8.66820761,11.6762355 C8.00802009,11.5686638 7.34201273,12.1718733 6.75566436,12.7027565 C6.52432592,12.9116586 6.30571838,13.1095466 6.15367519,13.1958243 C5.83358427,13.3768239 5.55568715,13.4150064 5.39127682,13.3008261 C5.34835553,13.271455 5.3214388,13.237311 5.30470677,13.2072056 C5.42401339,13.2053699 5.53168033,13.1238651 5.56223447,13.0019749 C5.59897217,12.8562206 5.51203839,12.7082636 5.36727,12.6711825 C5.08282557,12.5977547 4.89222597,12.7302919 4.80783837,12.878249 C4.68089322,13.102571 4.74709384,13.4267548 4.96533765,13.6485069 C5.0446329,13.7292775 5.26287671,13.9095428 5.62843509,13.9095428" id="Fill-25" fill="#FFFFFF" mask="url(#mask-4)"></path>
                <path d="M8.71312946,12.9823696 C8.74986717,12.8366154 8.66256964,12.6882912 8.51816499,12.6512102 C8.2340843,12.5781495 8.04239349,12.7106867 7.95873336,12.8586438 C7.83142447,13.0825986 7.89762509,13.4067825 8.11550516,13.6289016 C8.19480041,13.7093051 8.41340796,13.8899375 8.77896634,13.8899375 C8.99175406,13.8899375 9.25437411,13.8286253 9.56864519,13.6505628 C9.77233941,13.5352812 10.0011317,13.3278476 10.2662979,13.0881057 C10.713334,12.6835184 11.3255079,12.1298726 11.7339875,12.1944891 C11.8813021,12.2183531 12.0104297,12.3303306 12.1286451,12.5370299 C12.2032117,12.6673643 12.3683495,12.7117881 12.4971134,12.6368917 C12.626241,12.5616282 12.6706172,12.3949471 12.5960506,12.2649798 C12.3945388,11.911792 12.1330099,11.7069283 11.8187389,11.6566303 C11.1581876,11.5505271 10.492544,12.1515338 9.90583188,12.6827841 C9.67485718,12.8920534 9.45624963,13.0895743 9.30420644,13.1754848 C8.98411552,13.3572187 8.70585467,13.395034 8.54144433,13.2808537 C8.49925053,13.2514826 8.47197005,13.2177058 8.45560176,13.1879675 C8.57454464,13.1861319 8.68221159,13.1042598 8.71312946,12.9823696" id="Fill-26" fill="#FFFFFF" mask="url(#mask-4)"></path>
                <path d="M11.9622705,13.9321585 C12.1750583,13.9321585 12.438042,13.8712134 12.7519494,13.6935181 C12.9556436,13.5778693 13.1844359,13.3708028 13.4496021,13.1306938 C13.8966382,12.7261065 14.5088121,12.1713593 14.916928,12.2370772 C15.0646063,12.2609413 15.1940976,12.3729187 15.3119493,12.5792509 C15.3861522,12.7099524 15.5516537,12.7543762 15.6804176,12.6794799 C15.8095452,12.6042163 15.8539214,12.4379023 15.7793548,12.3072008 C15.577843,11.9543801 15.3163141,11.7498836 15.0020431,11.6988513 C14.3411281,11.5927481 13.6758482,12.1944891 13.0891361,12.7253723 C12.8581614,12.9346416 12.6395538,13.1321624 12.4875106,13.2184401 C12.1677835,13.3994397 11.8895226,13.4376221 11.7251123,13.3234419 C11.6825547,13.2940708 11.6552742,13.260294 11.638906,13.2301885 C11.7578488,13.2283528 11.8655158,13.146848 11.8964337,13.0249578 C11.9331714,12.8792035 11.8458738,12.7312465 11.7014692,12.6937983 C11.416661,12.6207376 11.2260614,12.7529077 11.1420376,12.9008648 C11.0150924,13.1255539 11.0809293,13.4493706 11.2991731,13.6714898 C11.3784684,13.7518932 11.5967122,13.9321585 11.9622705,13.9321585" id="Fill-27" fill="#FFFFFF" mask="url(#mask-4)"></path>
                <path d="M18.1529381,11.6790992 C17.4920231,11.5722617 16.8267432,12.1743699 16.2400311,12.705253 C16.0086926,12.9145223 15.7900851,13.1120432 15.6380419,13.198688 C15.3183147,13.3793205 15.0404176,13.4178701 14.8752798,13.3036898 C14.833086,13.2743187 14.8061692,13.2405419 14.7894372,13.2104365 C14.9083801,13.2086008 15.016047,13.1267287 15.0469649,13.0048386 C15.0837026,12.8594515 14.9964051,12.7114944 14.8520004,12.6740462 C14.5679198,12.6006184 14.3762289,12.7331556 14.2925688,12.8811127 C14.1656237,13.1054347 14.2314605,13.4296185 14.4497044,13.6513705 C14.5286359,13.7321411 14.7476072,13.9124065 15.1131655,13.9124065 C15.3259532,13.9124065 15.5882096,13.8510942 15.9021169,13.673766 C16.1061749,13.5581172 16.3353309,13.3506836 16.6001334,13.1105746 C17.0475332,12.7059873 17.659707,12.1505058 18.067823,12.2173251 C18.2155013,12.240822 18.3442651,12.3531666 18.4624805,12.5591317 C18.5374109,12.6902003 18.702185,12.734257 18.8309488,12.6593606 C18.9604401,12.5844643 19.0044527,12.4177831 18.9302498,12.2874487 C18.7283742,11.9342609 18.4668454,11.7297644 18.1529381,11.6790992" id="Fill-28" fill="#FFFFFF" mask="url(#mask-4)"></path>
                <path d="M8.5831289,16.8111901 C8.73080721,16.834687 8.8599348,16.9466644 8.97815019,17.1533637 C9.05235309,17.2836981 9.2174909,17.328122 9.34661849,17.2532256 C9.47538234,17.1783292 9.51975858,17.011648 9.44555568,16.8813136 C9.24368016,16.5281258 8.98251507,16.3239965 8.66824398,16.2729641 C8.00805646,16.1664938 7.3420491,16.7682348 6.75570074,17.299118 C6.5243623,17.5083873 6.30575475,17.7062752 6.15371156,17.7925529 C5.83362064,17.9735525 5.55572353,18.0121021 5.39094945,17.8975547 C5.34839191,17.8681836 5.32147517,17.8340397 5.30474315,17.8039342 C5.42368602,17.8020986 5.53135297,17.7209608 5.56227084,17.5987035 C5.59900855,17.4529493 5.51207476,17.304625 5.36730637,17.267544 C5.08286194,17.1944833 4.89226235,17.3270205 4.80787474,17.4749776 C4.68056585,17.6992996 4.74713021,18.0234834 4.96537402,18.2452355 C5.04430553,18.3260061 5.26291308,18.5062714 5.62847146,18.5062714 C5.84125918,18.5062714 6.10387923,18.4449591 6.41778657,18.267631 C6.62184453,18.1519821 6.85063679,17.9445485 7.11580302,17.7048067 C7.56320283,17.2998522 8.17755915,16.7465736 8.5831289,16.8111901" id="Fill-29" fill="#FFFFFF" mask="url(#mask-4)"></path>
                <path d="M11.7338784,16.7911076 C11.881193,16.8149716 12.0106843,16.926949 12.1285359,17.1336484 C12.2031026,17.2639827 12.3682404,17.3084066 12.497368,17.2335102 C12.6261318,17.1582467 12.6705081,16.9919327 12.5959414,16.8612311 C12.3944297,16.5084104 12.1332646,16.303914 11.8186297,16.2532488 C11.1580785,16.1471456 10.4924349,16.7485194 9.90608649,17.2794026 C9.67474806,17.4886719 9.45614051,17.6861927 9.30409732,17.7724704 C8.9840064,17.95347 8.70610928,17.9920196 8.54169895,17.8774722 C8.4991414,17.8481011 8.47186093,17.8143243 8.45549264,17.7842189 C8.57443552,17.7827503 8.68210246,17.7008783 8.71302034,17.5789881 C8.74975805,17.4332339 8.66282426,17.2852768 8.51805587,17.2478286 C8.23397518,17.1747679 8.0426481,17.306938 7.95862424,17.4552622 C7.83131535,17.6795842 7.89751597,18.0037681 8.11575978,18.2255201 C8.19505503,18.3059236 8.41329884,18.4861889 8.77885722,18.4861889 C8.99164493,18.4861889 9.25462872,18.4252438 9.56853607,18.2475484 C9.77223029,18.1318996 10.0010226,17.9248332 10.2661888,17.6850913 C10.7132248,17.2801369 11.3253987,16.7253897 11.7338784,16.7911076" id="Fill-30" fill="#FFFFFF" mask="url(#mask-4)"></path>
                <path d="M14.9169644,16.833402 C15.0646427,16.857266 15.194134,16.9696106 15.3119856,17.1763099 C15.3861885,17.3066443 15.5516901,17.3510681 15.6804539,17.2761718 C15.8095815,17.2009082 15.8539578,17.0342271 15.7793911,16.9038927 C15.5778794,16.551072 15.3163505,16.3465755 15.0020794,16.2959103 C14.3411644,16.1890728 13.6758846,16.791181 13.0891724,17.3220642 C12.8581978,17.5309663 12.6395902,17.7288543 12.487547,17.8147649 C12.1678198,17.9961316 11.889559,18.034314 11.7251486,17.9201338 C11.6825911,17.8907627 11.6553106,17.8566187 11.6389423,17.8268804 C11.7578852,17.8250447 11.8655522,17.7435399 11.89647,17.6216497 C11.9332077,17.4758954 11.8459102,17.3275712 11.7015056,17.2904902 C11.4166974,17.2174295 11.2260978,17.3492325 11.1420739,17.4979238 C11.014765,17.7218787 11.0809657,18.0460625 11.2992095,18.2678145 C11.378141,18.348218 11.5967485,18.5288504 11.9623069,18.5288504 C12.1750946,18.5288504 12.4380784,18.4679053 12.7519858,18.29021 C12.95568,18.1741941 13.1844722,17.9674947 13.4496385,17.7277529 C13.8966745,17.3224313 14.5088484,16.7687855 14.9169644,16.833402" id="Fill-31" fill="#FFFFFF" mask="url(#mask-4)"></path>
                <path d="M18.1529381,16.2758645 C17.4920231,16.1682928 16.8267432,16.7711352 16.2400311,17.3020184 C16.0086926,17.5109205 15.7900851,17.7088085 15.6380419,17.7950862 C15.3183147,17.9760858 15.0404176,18.0142683 14.8752798,17.9004551 C14.833086,17.8707169 14.8061692,17.8369401 14.7894372,17.8068346 C14.9083801,17.804999 15.016047,17.7234941 15.0469649,17.6016039 C15.0837026,17.4558497 14.9964051,17.3078926 14.8520004,17.2708115 C14.5679198,17.1973837 14.3762289,17.3299209 14.2925688,17.477878 C14.1656237,17.7022 14.2314605,18.0263838 14.4497044,18.2481359 C14.5286359,18.3285393 14.7476072,18.5091718 15.1131655,18.5091718 C15.3259532,18.5091718 15.5882096,18.4478595 15.9021169,18.2705314 C16.1061749,18.1545154 16.3353309,17.9474489 16.6001334,17.7073399 C17.0475332,17.3027526 17.659707,16.7476383 18.067823,16.8137233 C18.2155013,16.8375874 18.3442651,16.9495648 18.4624805,17.155897 C18.5374109,17.2865985 18.702185,17.3310224 18.8309488,17.256126 C18.9604401,17.1812296 19.0044527,17.0145484 18.9302498,16.8838469 C18.7283742,16.5310262 18.4668454,16.3265297 18.1529381,16.2758645" id="Fill-32" fill="#FFFFFF" mask="url(#mask-4)"></path>
                <path d="M5.62843509,9.31277744 C5.8412228,9.31277744 6.10384285,9.25183235 6.4177502,9.07413701 C6.62180816,8.95848819 6.85060042,8.75142173 7.11576665,8.51131275 C7.56316646,8.1063583 8.17752278,7.55234537 8.58309252,7.61769613 C8.73077083,7.64119304 8.85989842,7.75317047 8.97811382,7.95986979 C9.05231671,8.09020418 9.21745453,8.13499515 9.34658212,8.05973163 C9.47534596,7.98483525 9.5197222,7.81815409 9.44551931,7.6878197 C9.24364379,7.33499901 8.98247869,7.13050252 8.66820761,7.07947019 C8.00802009,6.97226556 7.34201273,7.57474086 6.75566436,8.10599116 C6.52432592,8.31489332 6.30571838,8.5127813 6.15367519,8.599059 C5.83358427,8.78005858 5.55568715,8.81824105 5.39127682,8.70406078 C5.34835553,8.67468965 5.3214388,8.64054572 5.30470677,8.61044031 C5.42401339,8.60860461 5.53168033,8.52709973 5.56223447,8.40520954 C5.59897217,8.25945531 5.51203839,8.11149825 5.36727,8.07405006 C5.08282557,8.00098937 4.89222597,8.13352659 4.80783837,8.28148366 C4.68089322,8.50580566 4.74709384,8.8299895 4.96533765,9.05174153 C5.0446329,9.13251213 5.26287671,9.31277744 5.62843509,9.31277744" id="Fill-33" fill="#FFFFFF" mask="url(#mask-4)"></path>
                <path d="M8.54155345,8.68427198 C8.49935965,8.65490086 8.47207917,8.62075692 8.45571089,8.59101865 C8.57465376,8.58918295 8.68232071,8.50767807 8.71323858,8.38578788 C8.74961255,8.23966651 8.66267877,8.09170945 8.51827411,8.05426126 C8.23382968,7.98156771 8.04250261,8.1137378 7.95847874,8.262062 C7.83153359,8.486384 7.89737048,8.8102007 8.11561428,9.03195273 C8.19490953,9.11272334 8.41315334,9.29298864 8.77871172,9.29298864 C8.99149944,9.29298864 9.25448323,9.23167641 9.56839057,9.05398108 C9.77244853,8.93833225 10.0012408,8.73126579 10.2660433,8.49152395 C10.7134431,8.0865695 11.3252532,7.53218943 11.7337329,7.5975402 C11.8814112,7.62140424 12.0105388,7.73338167 12.1283905,7.94008099 C12.2029571,8.07041538 12.3684586,8.11483921 12.4972225,8.03994283 C12.6259863,7.96504645 12.6707263,7.79836529 12.5957959,7.66803091 C12.3946479,7.31521021 12.1331191,7.11034659 11.818848,7.05968139 C11.157933,6.95394532 10.4922894,7.55495206 9.905941,8.08583522 C9.67460256,8.29510452 9.45635875,8.4929925 9.30431556,8.57890306 C8.98422464,8.76026978 8.70596379,8.79845225 8.54155345,8.68427198" id="Fill-34" fill="#FFFFFF" mask="url(#mask-4)"></path>
                <path d="M11.7250031,8.72656641 C11.6828093,8.69719528 11.6555289,8.66341848 11.6391606,8.63331308 C11.7581035,8.63147738 11.8657704,8.55033963 11.8966883,8.42844945 C11.9330622,8.28232808 11.8457647,8.13437101 11.7017238,8.09692282 C11.4165519,8.02386214 11.2259523,8.15603222 11.1419284,8.30435643 C11.0149833,8.52867843 11.0808202,8.85249513 11.299064,9.07424716 C11.3783592,9.15501776 11.596603,9.33528307 11.9621614,9.33528307 C12.1749491,9.33528307 12.4379329,9.27433798 12.7518403,9.09664264 C12.9558982,8.98099382 13.1846905,8.77392736 13.449493,8.53418551 C13.8968928,8.12923107 14.5087029,7.57521814 14.9168189,7.64020176 C15.0648609,7.6640658 15.1939885,7.77604323 15.3118401,7.98274256 C15.386043,8.11307694 15.5515446,8.15750078 15.6803084,8.0826044 C15.809436,8.00734088 15.854176,7.84102686 15.7792456,7.71032533 C15.5780976,7.35750464 15.316205,7.15300815 15.0022977,7.10234295 C14.3410189,6.99660689 13.6757391,7.59761362 13.089027,8.12849679 C12.8580523,8.33776609 12.6398084,8.53528693 12.4877653,8.62156462 C12.1680381,8.80256421 11.8894135,8.84111382 11.7250031,8.72656641" id="Fill-35" fill="#FFFFFF" mask="url(#mask-4)"></path>
                <path d="M14.8753889,8.70685104 C14.8331951,8.67747991 14.8062784,8.64333597 14.7895463,8.6135977 C14.9084892,8.61176201 15.0161562,8.53025712 15.047074,8.40836694 C15.0838117,8.26261271 14.9965142,8.1142885 14.8521096,8.07720745 C14.5676651,8.00377963 14.3763381,8.13631685 14.2923142,8.28464105 C14.1657328,8.50859592 14.2312059,8.83277976 14.4498135,9.05453179 C14.528745,9.13493525 14.7473525,9.3155677 15.1129109,9.3155677 C15.3256986,9.3155677 15.5883187,9.25425547 15.9018623,9.07692727 C16.106284,8.96091131 16.33544,8.75384485 16.6002425,8.514103 C17.0476423,8.10914856 17.6594524,7.55440135 18.0675684,7.62048639 C18.2156104,7.64398329 18.3443742,7.75596072 18.4622259,7.96302719 C18.5371563,8.09299444 18.7022941,8.13778541 18.8310579,8.06252189 C18.9601855,7.98762551 19.0045618,7.82094435 18.9299951,7.69060996 C18.7284834,7.33778927 18.4669545,7.13292564 18.1530472,7.08226044 C17.4917684,6.97542296 16.8264886,7.57753111 16.2401402,8.10841428 C16.0088018,8.31768358 15.7901942,8.51557156 15.638151,8.60148211 C15.3184238,8.7824817 15.0405267,8.82139845 14.8753889,8.70685104" id="Fill-36" fill="#FFFFFF" mask="url(#mask-4)"></path>
                <path d="M33.3259388,39.4902545 C31.845882,39.4902545 30.6415399,38.2753912 30.6415399,36.7822364 C30.6415399,35.2890816 31.845882,34.0738511 33.3259388,34.0738511 C34.8049043,34.0738511 36.0085189,35.2890816 36.0085189,36.7822364 C36.0085189,38.2753912 34.8049043,39.4902545 33.3259388,39.4902545 M33.3259388,33.3656398 C31.458863,33.3656398 29.9402498,34.8984456 29.9402498,36.7822364 C29.9402498,38.6663944 31.458863,40.198833 33.3259388,40.198833 C35.1915596,40.198833 36.709809,38.6663944 36.709809,36.7822364 C36.709809,34.8984456 35.1915596,33.3656398 33.3259388,33.3656398" id="Fill-38" fill="#FFFFFF" mask="url(#mask-4)"></path>
                <path d="M33.3241564,30.1586796 C33.1310107,30.1586796 32.9735114,30.3176508 32.9735114,30.5126017 L32.9735114,32.8362252 L33.6748015,32.8362252 L33.6748015,30.5126017 C33.6748015,30.3176508 33.5173022,30.1586796 33.3241564,30.1586796" id="Fill-39" fill="#FFFFFF" mask="url(#mask-4)"></path>
                <path d="M33.3241564,43.3968717 C33.5173022,43.3968717 33.6748015,43.2379005 33.6748015,43.0429496 L33.6748015,40.718959 L32.9735114,40.718959 L32.9735114,43.0429496 C32.9735114,43.2379005 33.1310107,43.3968717 33.3241564,43.3968717" id="Fill-40" fill="#FFFFFF" mask="url(#mask-4)"></path>
                <path d="M39.6185625,36.3860933 L37.3168178,36.3860933 L37.3168178,37.0946718 L39.6185625,37.0946718 C39.812072,37.0946718 39.9692076,36.9357005 39.9692076,36.7407497 C39.9692076,36.5454317 39.812072,36.3860933 39.6185625,36.3860933" id="Fill-41" fill="#FFFFFF" mask="url(#mask-4)"></path>
                <path d="M26.6219982,36.739942 C26.6219982,36.93526 26.7794975,37.0945984 26.9726432,37.0945984 L29.2747517,37.0945984 L29.2747517,36.3860199 L26.9726432,36.3860199 C26.7794975,36.3860199 26.6219982,36.5449911 26.6219982,36.739942" id="Fill-42" fill="#FFFFFF" mask="url(#mask-4)"></path>
                <path d="M37.364395,33.5325045 C37.5080721,33.4021701 37.5200755,33.1778481 37.3902205,33.0328282 C37.3276573,32.9623374 37.2414509,32.9208507 37.1479698,32.9157108 C37.054125,32.910938 36.964645,32.9428791 36.8955345,33.006027 L36.0152845,33.8049217 L36.4841449,34.3317664 L37.364395,33.5325045 Z" id="Fill-43" fill="#FFFFFF" mask="url(#mask-4)"></path>
                <path d="M29.703819,33.0061739 C29.6343447,32.9430259 29.5423186,32.9110848 29.4506562,32.9158576 C29.3571751,32.9209976 29.2709688,32.9624843 29.2084056,33.0322407 C29.0789142,33.1776278 29.0905539,33.4019498 29.2345948,33.5330185 L30.1148449,34.3315461 L30.5833416,33.8050686 L29.703819,33.0061739 Z" id="Fill-44" fill="#FFFFFF" mask="url(#mask-4)"></path>
                <path d="M29.0303186,40.3618795 C29.1594462,40.5068995 29.3809637,40.5186479 29.5253683,40.3883135 L30.4052546,39.5901531 L29.9360304,39.0640427 L29.0565079,39.8622032 C28.9870336,39.9253511 28.945931,40.0119959 28.9408387,40.1063507 C28.9353826,40.2007054 28.9673917,40.2917559 29.0299549,40.3618795" id="Fill-45" fill="#FFFFFF" mask="url(#mask-4)"></path>
                <path d="M36.7253407,39.0639693 L36.2564803,39.5904468 L37.1360028,40.3882401 C37.2804075,40.5185745 37.5019249,40.506826 37.6310525,40.3618061 C37.6936157,40.2916825 37.7256248,40.200632 37.7205325,40.1062773 C37.7158039,40.0119225 37.6743375,39.9252777 37.605227,39.8621297 L36.7253407,39.0639693 Z" id="Fill-46" fill="#FFFFFF" mask="url(#mask-4)"></path>
                <polygon id="Fill-47" fill="#FFFFFF" mask="url(#mask-4)" points="77.1992007 15.4139687 75.4758021 11.126151 75.9974048 11.126151 77.4600021 14.8625258 78.9287829 11.126151 79.4383822 11.126151 77.7029802 15.4139687"></polygon>
                <path d="M82.8183241,11.6590534 L81.8656898,13.8644581 L83.7833254,13.8644581 L82.8183241,11.6590534 Z M81.6652693,14.3175078 L81.1920439,15.4141523 L80.6758973,15.4141523 L82.5818933,11.1263345 L83.085309,11.1263345 L84.9847576,15.4141523 L84.4569713,15.4141523 L83.9775624,14.3175078 L81.6652693,14.3175078 Z" id="Fill-48" fill="#FFFFFF" mask="url(#mask-4)"></path>
                <polygon id="Fill-49" fill="#FFFFFF" mask="url(#mask-4)" points="88.4200607 13.3742539 87.5947353 14.2932031 87.5947353 15.4140789 87.1091428 15.4140789 87.1091428 11.1262611 87.5947353 11.1262611 87.5947353 13.6191357 89.8768381 11.1262611 90.4533655 11.1262611 88.7659771 12.9946321 90.5803106 15.4140789 89.98596 15.4140789"></polygon>
                <path d="M94.3308305,11.6590534 L93.3781963,13.8644581 L95.2958319,13.8644581 L94.3308305,11.6590534 Z M93.1777757,14.3175078 L92.7045504,15.4141523 L92.1884038,15.4141523 L94.0943997,11.1263345 L94.5978154,11.1263345 L96.497264,15.4141523 L95.9694778,15.4141523 L95.4900689,14.3175078 L93.1777757,14.3175078 Z" id="Fill-50" fill="#FFFFFF" mask="url(#mask-4)"></path>
                <polygon id="Fill-51" fill="#FFFFFF" mask="url(#mask-4)" points="101.655711 15.4139687 99.1069871 11.9345913 99.1069871 15.4139687 98.6213947 15.4139687 98.6213947 11.126151 99.1251741 11.126151 101.674262 14.6114026 101.674262 11.126151 102.153307 11.126151 102.153307 15.4139687"></polygon>
                <polygon id="Fill-52" fill="#FFFFFF" mask="url(#mask-4)" points="106.195364 11.5794576 106.195364 15.4138586 105.709772 15.4138586 105.709772 11.5794576 104.326106 11.5794576 104.326106 11.126408 107.58485 11.126408 107.58485 11.5794576"></polygon>
                <polygon id="Fill-53" fill="#FFFFFF" mask="url(#mask-4)" points="109.745354 15.4139687 110.230947 15.4139687 110.230947 11.126151 109.745354 11.126151"></polygon>
                <polygon id="Fill-54" fill="#FFFFFF" mask="url(#mask-4)" points="113.4595 11.5794576 113.4595 13.0190101 115.601927 13.0190101 115.601927 13.4661856 113.4595 13.4661856 113.4595 14.9608089 115.935476 14.9608089 115.935476 15.4138586 112.973908 15.4138586 112.973908 11.126408 115.856545 11.126408 115.856545 11.5794576"></polygon>
                <path d="M118.866927,13.6008522 L119.959237,13.6008522 C120.34371,13.6008522 120.640886,13.5142074 120.851127,13.3405506 C121.061732,13.1668938 121.166853,12.9128335 121.166853,12.5780026 C121.166853,12.2512488 121.061732,12.0030628 120.851127,11.8338116 C120.640886,11.6645605 120.34371,11.5793842 119.959237,11.5793842 L118.866927,11.5793842 L118.866927,13.6008522 Z M121.200317,11.5026521 C121.48949,11.7541424 121.633895,12.1084317 121.633895,12.565887 C121.633895,13.035458 121.48949,13.4007614 121.200317,13.6621644 C120.91078,13.9235675 120.503392,14.0539019 119.977424,14.0539019 L118.866927,14.0539019 L118.866927,15.4137852 L118.381335,15.4137852 L118.381335,11.1263345 L119.977424,11.1263345 C120.503392,11.1263345 120.91078,11.2518961 121.200317,11.5026521 Z" id="Fill-55" fill="#FFFFFF" mask="url(#mask-4)"></path>
                <path d="M125.184067,11.6590534 L124.231433,13.8644581 L126.149068,13.8644581 L125.184067,11.6590534 Z M124.031012,14.3175078 L123.557787,15.4141523 L123.04164,15.4141523 L124.947636,11.1263345 L125.451052,11.1263345 L127.3505,15.4141523 L126.822714,15.4141523 L126.343305,14.3175078 L124.031012,14.3175078 Z" id="Fill-56" fill="#FFFFFF" mask="url(#mask-4)"></path>
                <path d="M131.983926,13.3405506 C132.192348,13.1668938 132.296378,12.9128335 132.296378,12.5780026 C132.296378,12.2512488 132.192348,12.0030628 131.983926,11.8338116 C131.775867,11.6645605 131.477236,11.5793842 131.088762,11.5793842 L129.960442,11.5793842 L129.960442,13.6008522 L131.088762,13.6008522 C131.477236,13.6008522 131.775867,13.5142074 131.983926,13.3405506 Z M131.361931,14.0417863 C131.248808,14.0502305 131.157873,14.0539019 131.088762,14.0539019 L129.960442,14.0539019 L129.960442,15.4137852 L129.474849,15.4137852 L129.474849,11.1263345 L131.088762,11.1263345 C131.618731,11.1263345 132.030484,11.2518961 132.324022,11.5026521 C132.617196,11.7541424 132.764147,12.1084317 132.764147,12.565887 C132.764147,12.916872 132.680851,13.2105833 132.514986,13.4477552 C132.34912,13.6845599 132.112689,13.8519754 131.804966,13.9500015 L132.806341,15.4137852 L132.254184,15.4137852 L131.361931,14.0417863 Z" id="Fill-57" fill="#FFFFFF" mask="url(#mask-4)"></path>
                <polygon id="Fill-58" fill="#FFFFFF" mask="url(#mask-4)" points="136.629791 13.3742539 135.804465 14.2932031 135.804465 15.4140789 135.318873 15.4140789 135.318873 11.1262611 135.804465 11.1262611 135.804465 13.6191357 138.086568 11.1262611 138.663096 11.1262611 136.975707 12.9946321 138.790041 15.4140789 138.19569 15.4140789"></polygon>
            </g>
        </g>
    </g>
</svg>