<?xml version="1.0" encoding="UTF-8"?>
<svg width="213px" height="197px" viewBox="0 0 213 197" version="1.1" xmlns="http://www.w3.org/2000/svg" xmlns:xlink="http://www.w3.org/1999/xlink">
    <!-- Generator: Sketch 48.2 (47327) - http://www.bohemiancoding.com/sketch -->
    <title>Page 1</title>
    <desc>Created with Sketch.</desc>
    <defs>
        <polygon id="path-1" points="0 196.173115 212.941354 196.173115 212.941354 0 0 0"></polygon>
    </defs>
    <g id="Wulpdal-Homepage-1440px---Home-v0.4" stroke="none" stroke-width="1" fill="none" fill-rule="evenodd" transform="translate(-614.000000, -152.000000)">
        <g id="Page-1" transform="translate(614.000000, 152.000000)">
            <path d="M93.199412,165.216102 C93.299089,165.152598 93.3834929,165.017552 93.3987659,164.906621 C93.565966,163.756317 93.5088929,162.609228 93.2878351,161.421142 C93.188962,161.473392 93.136712,161.4959 93.0900889,161.526446 C90.2685876,163.34957 87.4446748,165.170283 84.631212,167.00466 C84.5138504,167.079418 84.4302504,167.267518 84.4286427,167.404976 C84.410958,168.429076 84.4181927,169.453981 84.4198004,170.479689 C84.4206042,170.56972 84.4366811,170.65975 84.447935,170.780327 C84.5411812,170.730489 84.5942351,170.706373 84.641662,170.676631 C87.496121,168.85833 90.35058,167.041637 93.199412,165.216102 Z M84.4222119,172.033524 C88.4454637,172.11632 91.9703307,169.992558 92.9839811,166.574602 C90.1029952,168.412196 87.2630055,170.223262 84.4222119,172.033524 Z M84.4085465,164.487013 C84.4069388,164.933952 84.4077427,165.38089 84.4077427,165.890529 C84.5773543,165.794067 84.6778351,165.743425 84.7718851,165.683137 C85.5194624,165.199221 86.2662358,164.712894 87.0146169,164.228174 C88.9390255,162.985428 90.8666494,161.745093 92.7854311,160.495111 C92.8899311,160.426784 93.0217619,160.2628 92.995235,160.181611 C92.6921849,159.257991 92.3610001,158.340803 92.0249922,157.388244 C91.889946,157.442102 91.8545768,157.450141 91.827246,157.467825 C89.4197257,159.010407 87.0105977,160.552184 84.6087043,162.103608 C84.5074196,162.170327 84.4310542,162.331097 84.4278388,162.45087 C84.4069388,163.128512 84.410958,163.807763 84.4085465,164.487013 Z M84.4077427,150.266164 C84.4069388,150.55153 84.4077427,150.836895 84.4077427,151.201038 C85.42702,150.565999 86.3618935,149.984818 87.3064132,149.396402 C86.7405053,148.501721 86.2003204,147.648036 85.6456663,146.77104 C85.2992084,146.976824 84.9985699,147.168944 84.6818543,147.337751 C84.4833042,147.444663 84.410958,147.573278 84.4133696,147.782279 C84.4230157,148.61024 84.410958,149.438202 84.4077427,150.266164 Z M84.4423081,145.0283 L84.4423081,146.293555 C84.6810505,146.152078 84.8731698,146.038735 85.0902084,145.908512 C84.8820121,145.587778 84.6923043,145.29357 84.5017927,144.998558 C84.4816965,145.008204 84.4624042,145.01785 84.4423081,145.0283 Z M89.3714949,152.778185 C88.8562293,151.93093 88.3586483,151.113418 87.8449904,150.270184 C86.7179975,150.971942 85.6247663,151.647173 84.5452004,152.337677 C84.4575811,152.39475 84.4254273,152.563558 84.4246234,152.679312 C84.4149773,153.692962 84.4181927,154.705809 84.4198004,155.718655 C84.4198004,155.811098 84.4358773,155.902736 84.4487388,156.052251 C86.1167204,154.942943 87.7364711,153.865789 89.3714949,152.778185 Z M89.905249,153.692962 C89.8337066,153.722704 89.7983374,153.731547 89.7702028,153.750035 C88.045952,154.895516 86.3192897,156.03939 84.6038812,157.194517 C84.5178696,157.25159 84.4632081,157.372167 84.4382888,157.483098 L84.4358773,157.969425 L84.4366811,157.968622 L84.4366811,160.991888 C85.0009814,160.629354 85.4913278,160.291738 86.0082011,159.987884 L86.3570705,159.762807 C86.642436,159.567472 86.9189592,159.36008 87.2252247,159.20333 L88.7589639,158.215402 C88.8337216,158.155114 88.9245562,158.095629 89.0298601,158.032929 C89.0821102,158.002383 89.1335563,157.970229 89.1858064,157.939683 L89.8111989,157.536152 L89.8152182,157.54821 C90.2975261,157.239533 90.7725994,156.922013 91.2605342,156.619767 C91.450242,156.501602 91.4783766,156.406748 91.371465,156.22749 C91.0812764,155.744378 90.8127917,155.25162 90.5322493,154.763686 C90.3264646,154.405974 90.1150529,154.04987 89.905249,153.692962 Z M83.3410383,160.976615 L83.3410383,160.27968 L83.3201383,160.233861 L83.3289806,158.679222 C83.3257653,158.680026 83.3225499,158.681633 83.3201383,158.683241 C83.3201383,158.273279 83.3362153,157.897883 83.3104922,157.525702 C83.3016499,157.396283 83.2164421,157.240337 83.1087267,157.155933 C82.5918534,156.745971 82.0556878,156.355302 81.5227375,155.959809 C81.4503913,155.905951 81.3611644,155.869778 81.2783682,155.826371 C81.0524873,155.709813 80.8105295,155.611744 80.6007256,155.474286 C79.6907713,154.881047 78.7904632,154.276555 77.8491589,153.651162 C77.3097779,154.590055 76.7848661,155.504832 76.2438774,156.44694 C77.0847009,156.985517 77.8805089,157.500783 78.6843555,158.006402 C78.7486632,158.047399 78.8041286,158.089199 78.8515555,158.134214 L79.6996136,158.668772 L79.7052405,158.664753 C79.927906,158.807034 80.1513754,158.950922 80.3740408,159.094811 L80.373237,159.094811 L81.9720877,160.104442 L82.3064879,160.333538 C82.536388,160.481446 82.7670919,160.630961 82.9985997,160.778065 C83.0878267,160.835942 83.1826806,160.884977 83.3410383,160.976615 Z M74.805796,166.589875 C76.0445235,170.563289 80.0830484,172.17902 83.3378229,172.028701 C80.493814,170.215223 77.649805,168.402549 74.805796,166.589875 Z M74.3283112,164.797298 C74.3524266,164.954048 74.4641613,165.146167 74.6040305,165.236198 C77.3781049,167.01913 80.1626292,168.7892 82.9455458,170.561681 C83.049242,170.627597 83.1585652,170.687081 83.3201383,170.781935 L83.3201383,170.42342 C83.3201383,169.420219 83.3104922,168.417822 83.3265691,167.41623 C83.3297845,167.183114 83.2405575,167.05048 83.033969,166.917845 C80.7060295,165.424298 78.3853246,163.921105 76.063012,162.41952 C75.5493541,162.088335 75.0340884,161.757954 74.4730036,161.397027 C74.4376343,161.540112 74.4119112,161.622104 74.3982458,161.705704 C74.2398881,162.733824 74.1755804,163.764355 74.3283112,164.797298 Z M74.7792691,160.006373 C74.6940614,160.237076 74.7575652,160.366496 74.9810346,160.510384 C77.6699012,162.237047 80.3491216,163.974963 83.0323613,165.70886 C83.1055113,165.75709 83.1883075,165.793264 83.3201383,165.862394 C83.3201383,164.705659 83.3104922,163.617251 83.3265691,162.529647 C83.3305883,162.285277 83.2461844,162.142193 83.0259305,162.00152 C80.8249987,160.602827 78.634517,159.193684 76.440016,157.787756 C76.2318197,157.654318 76.0196043,157.524094 75.7374541,157.347248 C75.4054655,158.271672 75.0992,159.14063 74.7792691,160.006373 Z M79.8941445,150.254107 C79.3820942,151.102165 78.890944,151.91405 78.3772861,152.766931 C80.027583,153.863377 81.6465299,154.938924 83.3193345,156.050644 C83.3193345,154.829601 83.3249614,153.688139 83.3096883,152.546677 C83.3088845,152.446196 83.1995613,152.315973 83.0982767,152.251665 C82.3973225,151.802315 81.6843107,151.36663 80.975318,150.925318 C80.6232333,150.706672 80.2719523,150.48883 79.8941445,150.254107 Z M82.0814108,146.745317 C81.5227375,147.63839 80.980945,148.503329 80.4303101,149.381129 C81.3941221,149.979995 82.3257802,150.558764 83.3193345,151.176922 C83.3193345,149.943822 83.3225499,148.791106 83.3137076,147.639194 C83.3129037,147.558809 83.2526152,147.449486 83.180269,147.404471 C82.8330073,147.181805 82.4712764,146.976824 82.0814108,146.745317 Z M83.2944152,144.853866 C83.0452228,145.242124 82.8466727,145.551604 82.6344572,145.881985 C82.8603381,146.01462 83.0629074,146.133589 83.2944152,146.269439 L83.2944152,144.853866 Z M92.3135731,156.114952 C93.592493,158.456556 94.3762433,160.918738 94.409201,163.548924 C94.4220626,165.282017 94.0587239,166.940353 93.1399274,168.47168 C91.7822306,170.732097 89.6608796,172.115516 86.8996669,172.673386 C84.6079004,173.137205 82.2968417,173.128363 80.0468753,172.478051 C76.5228122,171.459578 74.4223612,169.240157 73.616907,166.019948 C73.0887799,163.912263 73.2825069,161.814223 73.931211,159.752357 C74.2213996,158.834364 74.5574075,157.917979 74.9802307,157.044198 C75.5477464,155.873798 76.1819813,154.726709 76.8556046,153.603735 C78.4070284,151.015349 79.9922137,148.443844 81.5790068,145.873143 C82.1706378,144.912546 82.8040689,143.97285 83.4198153,143.025115 C83.6368539,142.689107 84.0484233,142.692322 84.2735003,143.029134 C84.9093429,143.979281 85.574124,144.914154 86.176205,145.881182 C87.4921017,147.994494 88.78951,150.11906 90.0724491,152.249254 C90.8417302,153.526566 91.6013651,154.811112 92.3135731,156.114952 Z" id="Fill-1" fill="#FFFFFF"></path>
            <path d="M133.019718,114.10119 C132.738371,115.071433 132.457829,116.040872 132.176483,117.011114 C132.057513,117.424291 131.924075,117.834253 131.823594,118.251449 C131.762502,118.505465 131.826809,118.619611 132.152367,118.552892 C132.703002,118.441157 132.959429,118.133284 133.081614,117.59953 C133.349295,116.432345 133.125022,115.277217 133.019718,114.10119 M130.423293,119.8085 C129.051127,120.083416 127.694234,120.244185 126.346184,119.843066 C126.565634,119.490981 126.56483,119.510273 127.484431,119.5577 C127.905646,119.579404 128.326862,119.795639 128.7738,119.591462 C128.616246,119.440338 128.360623,119.510273 128.202265,119.234554 C128.908847,119.161404 129.610605,119.597892 130.276189,119.146131 C129.867032,119.018319 129.46752,119.038415 129.07685,118.994204 C128.948235,118.979734 128.754508,118.999831 128.760135,118.810927 C128.765762,118.632473 128.9619,118.641315 129.088104,118.62765 C129.43617,118.588261 129.78102,118.64855 130.117832,118.727327 C130.58567,118.835846 130.869428,118.671057 131.036628,118.216884 C131.664432,116.50871 132.196579,114.770794 132.655575,113.011174 C132.744802,112.669539 132.756056,112.32067 132.686121,111.980643 C132.559917,111.361681 132.868595,110.756385 132.693356,110.129384 C132.494002,109.412353 132.461848,109.426822 131.731152,109.320715 C130.341301,109.118949 128.994054,108.745964 127.816419,107.923629 C127.76015,107.885045 127.705488,107.837618 127.642788,107.812699 C125.301987,106.879433 123.966798,105.074797 123.423398,102.698627 C123.10829,101.32405 123.437867,99.9454527 123.919371,98.629556 C124.146056,98.0097903 124.424187,97.4101208 124.342998,96.7252436 C124.33496,96.6585243 124.355056,96.5877858 124.367918,96.5194589 C124.431421,96.1826472 124.790741,95.848247 124.448302,95.5058084 C124.020656,95.0773582 123.56809,94.623185 122.927425,94.575758 C120.577781,94.402931 118.248234,94.4664349 116.050518,95.4575776 C115.184775,95.8466394 114.323855,96.2662472 113.774024,97.1070707 C113.696051,97.22604 113.580297,97.4189631 113.409882,97.2895439 C113.263582,97.1778092 113.362455,96.9921206 113.447663,96.8651129 C113.83994,96.2807165 114.364852,95.8345817 114.940406,95.4382853 C116.441187,94.402931 118.159007,94.0379847 119.921843,93.7871846 C120.966039,93.638473 122.022293,93.5741653 123.052825,93.3169344 C123.414556,93.2252959 123.740113,93.0846227 124.026283,92.8515072 C124.392033,92.5548879 124.800387,92.3378493 125.228837,92.1465338 C125.874326,91.8571491 127.363854,92.0058607 127.680569,92.564534 C128.012558,93.1505381 128.537469,93.680273 128.539881,94.4383003 C128.5439,95.6609508 128.567212,96.8827975 128.342135,98.0925865 C128.226381,98.7107445 128.463516,98.9631523 129.093731,98.9028638 C130.54789,98.7629945 131.940152,99.1182947 133.358137,99.352214 C134.678053,99.5700564 135.853277,100.089341 136.778504,100.958299 C137.848424,101.963107 139.071074,102.693804 140.284882,103.465497 C140.560602,103.639127 140.931175,103.75247 140.974583,104.179312 C140.98021,104.237189 141.136156,104.291047 141.230206,104.325612 C142.445622,104.774159 143.662646,105.220294 144.878865,105.667232 C145.121627,105.755655 145.337058,105.845686 145.50265,106.089252 C145.775154,106.48796 146.27997,106.397125 146.681893,106.511271 C146.976101,106.594871 147.300855,106.566736 147.609532,106.600498 C147.802455,106.622202 148.021905,106.666413 148.054863,106.889079 C148.092644,107.150329 147.841844,107.176856 147.669017,107.21946 C147.257447,107.323156 146.838643,107.401933 146.323377,107.512864 C146.82337,107.705787 147.237351,107.862537 147.648117,108.025718 C147.769497,108.073949 147.972871,108.092437 147.919817,108.270891 C147.873997,108.428445 147.738147,108.558668 147.520305,108.51928 C147.078189,108.438091 146.63527,108.359314 146.191547,108.294203 C144.284019,108.017679 142.362826,107.853695 140.472179,108.318318 C139.128147,108.647895 137.804212,109.060268 136.415969,109.165572 C135.745561,109.217018 135.07033,109.202549 134.397511,109.233095 C133.493183,109.274092 133.192545,109.813473 133.690929,110.581146 C133.961826,110.998342 134.036583,111.374543 133.881441,111.841577 C133.695753,112.407485 133.704595,112.995097 133.748003,113.587532 C133.839641,114.814202 133.71826,116.047302 133.855718,117.274776 C133.892695,117.605157 133.942533,117.834253 134.322753,117.887307 C134.481914,117.909011 134.714226,118.003061 134.678857,118.196788 C134.644291,118.384084 134.415195,118.298876 134.274522,118.286015 C133.997999,118.260292 133.846876,118.36238 133.809095,118.640511 C133.769706,118.937131 133.572764,118.981342 133.301868,119.036808 C132.891102,119.119604 132.379856,118.880861 132.079217,119.367188 C131.363794,119.186323 131.277782,119.911393 130.917659,120.213639 C130.273778,120.756235 129.534239,121.131632 128.839716,121.583393 C128.756116,121.638055 128.653223,121.728086 128.563996,121.629213 C128.450654,121.50542 128.557566,121.393685 128.651616,121.324555 C128.944216,121.109928 129.247266,120.907358 129.547101,120.702377 C129.887932,120.469262 130.218313,120.225696 130.423293,119.8085" id="Fill-3" fill="#FFFFFF"></path>
            <polygon id="Fill-5" fill="#FFFFFF" points="104.768853 194.999258 104.657923 80.0138372 106.972197 80.009818 107.083931 194.996043"></polygon>
            <mask id="mask-2" fill="white">
                <use xlink:href="#path-1"></use>
            </mask>
            <g id="Clip-8"></g>
            <polygon id="Fill-7" fill="#FFFFFF" mask="url(#mask-2)" points="56.0168483 134.202176 155.720343 134.202176 155.720343 131.88549 56.0168483 131.88549"></polygon>
            <path d="M106.597926,80.440117 L61.1621091,80.4417247 C57.6404575,80.4417247 57.1951265,80.8918788 57.192715,84.4585458 L57.1903035,103.114216 C57.1878919,118.03843 57.1854804,132.961841 57.1742265,147.890074 C57.1629727,160.194553 61.6741593,170.808542 70.5831903,179.437835 C83.2469883,191.700513 98.8777838,196.177135 117.03748,192.727025 C139.792768,188.415996 156.078698,168.868057 155.762786,146.244601 C155.561021,132.02134 155.610859,117.563357 155.657482,103.580447 C155.67999,97.1778092 155.70089,90.7767794 155.700086,84.3765534 C155.700086,81.0285327 155.117298,80.440117 151.803038,80.440117 L121.666029,80.4377055 L106.597926,80.440117 Z M105.478971,196.173115 C91.5700151,196.173115 79.3282365,191.128175 68.9722819,181.100993 C59.5946084,172.019135 54.8470909,160.844061 54.8599524,147.886859 C54.8712063,132.960233 54.872814,118.036822 54.8752255,103.114216 L54.8784409,84.4585458 C54.8800486,79.6049205 56.3486762,78.1250391 61.1621091,78.1250391 L151.803842,78.1234314 C156.389787,78.1266468 158.015164,79.7616706 158.015164,84.3765534 C158.015968,90.7807986 157.994264,97.1834361 157.971757,103.587681 C157.925937,117.560945 157.876903,132.009283 158.07706,146.214054 C158.408245,169.961288 141.330526,190.480274 117.468342,195.001107 C113.347021,195.78325 109.348689,196.173115 105.478971,196.173115 Z" id="Fill-9" fill="#FFFFFF" mask="url(#mask-2)"></path>
            <path d="M67.2981911,108.578684 C67.7684413,108.578684 68.3488185,108.444442 69.042538,108.056184 C69.4934959,107.802972 69.9991154,107.348799 70.5851195,106.823083 C71.5738507,105.93644 72.9315475,104.725044 73.8278364,104.867325 C74.154198,104.918771 74.4395636,105.163944 74.7008137,105.615706 C74.8647984,105.901875 75.2297447,105.99914 75.5151102,105.835156 C75.7996719,105.670367 75.8977411,105.306225 75.7337564,105.020055 C75.2876216,104.247559 74.7104598,103.799816 74.0159364,103.688886 C72.556955,103.453359 71.085112,104.773275 69.7893115,105.935637 C69.2780651,106.393829 68.7949533,106.826299 68.4589455,107.015202 C67.7515605,107.412303 67.1374218,107.495903 66.7732793,107.245103 C66.6792293,107.181599 66.6197446,107.106841 66.5827677,107.040926 C66.8464294,107.036906 67.0835641,106.857649 67.151891,106.590772 C67.2330795,106.271644 67.0401564,105.947694 66.7210293,105.866506 C66.0924213,105.705736 65.6704019,105.995925 65.4847134,106.319875 C65.2041709,106.811829 65.350471,107.521626 65.8327789,108.007149 C66.0072136,108.183995 66.4903254,108.578684 67.2981911,108.578684" id="Fill-10" fill="#FFFFFF" mask="url(#mask-2)"></path>
            <path d="M74.1144076,106.547846 C74.1964,106.229523 74.002673,105.903965 73.6843498,105.82358 C73.0557418,105.662811 72.6329185,105.953 72.44723,106.27695 C72.1666875,106.7681 72.3129876,107.477897 72.7944917,107.964224 C72.9697302,108.139462 73.452842,108.534955 74.2607077,108.534955 C74.7309579,108.534955 75.3113351,108.401516 76.0050546,108.011651 C76.4552087,107.759243 76.961632,107.30507 77.5476361,106.780158 C78.5355635,105.893515 79.8876333,104.682118 80.7911568,104.822791 C81.1167146,104.875845 81.4020802,105.121019 81.6633303,105.57278 C81.8281188,105.85895 82.1930651,105.956215 82.4776268,105.79223 C82.7629923,105.626638 82.8610616,105.262496 82.696273,104.97713 C82.2509421,104.204634 81.6729764,103.755283 80.978453,103.645156 C79.5186678,103.413649 78.0476286,104.729545 76.7502204,105.892711 C76.2405817,106.350904 75.7574699,106.783373 75.4214621,106.971473 C74.7140771,107.368573 74.0991346,107.452173 73.7357959,107.201373 C73.6417459,107.137066 73.5822612,107.063916 73.5460881,106.998 C73.8081421,106.993981 74.0468845,106.814723 74.1144076,106.547846" id="Fill-11" fill="#FFFFFF" mask="url(#mask-2)"></path>
            <path d="M81.2956509,108.628121 C81.7659011,108.628121 82.3470821,108.493878 83.0399978,108.104816 C83.4909557,107.851605 83.9965752,107.399039 84.5825793,106.873324 C85.5705066,105.986681 86.9233803,104.772873 87.8252961,104.915957 C88.1516578,104.968207 88.4370233,105.213381 88.6974696,105.665946 C88.8622581,105.952115 89.2272044,106.049381 89.51257,105.884592 C89.7979355,105.720608 89.8960047,105.355661 89.7312162,105.070296 C89.2858852,104.296995 88.7079196,103.849253 88.0133962,103.738322 C86.5528071,103.50601 85.0825718,104.823515 83.7859674,105.985073 C83.2755248,106.443266 82.7924131,106.875735 82.4564052,107.064639 C81.7498242,107.461739 81.1348816,107.544535 80.7715429,107.295343 C80.6774929,107.231035 80.6172044,107.156278 80.5810313,107.090362 C80.8438891,107.087147 81.0818277,106.907889 81.1501547,106.641012 C81.2313432,106.322689 81.03842,105.997935 80.7192929,105.916746 C80.0898811,105.756781 79.6686655,106.045362 79.482977,106.370116 C79.2024345,106.861266 79.3479308,107.571062 79.8302387,108.056586 C80.0054772,108.232628 80.4877851,108.628121 81.2956509,108.628121" id="Fill-12" fill="#FFFFFF" mask="url(#mask-2)"></path>
            <path d="M94.9759128,103.694352 C93.5153237,103.460432 92.0450884,104.779545 90.7492878,105.941103 C90.2372376,106.399295 89.7549297,106.832569 89.4189218,107.021472 C88.7123408,107.417769 88.0973982,107.501369 87.7332557,107.251373 C87.6400095,107.187065 87.579721,107.113111 87.5435479,107.047196 C87.8064057,107.043176 88.0443443,106.864722 88.1126713,106.597845 C88.1938598,106.278718 88.0009366,105.954768 87.6818095,105.87358 C87.0540054,105.712006 86.6303783,106.002195 86.4454936,106.326949 C86.1641473,106.818099 86.3104474,107.527896 86.7919514,108.012615 C86.96719,108.189461 87.4511056,108.584954 88.2581675,108.58415 C88.7284177,108.58415 89.3087949,108.450712 90.0025144,108.06165 C90.4534723,107.808438 90.9598956,107.355069 91.5450959,106.829353 C92.5338271,105.943514 93.8867008,104.727295 94.7878127,104.872791 C95.1149783,104.924237 95.3995399,105.170214 95.66079,105.621976 C95.8255786,105.908145 96.1905249,106.00541 96.4750866,105.841426 C96.7612559,105.676637 96.8585213,105.312495 96.6945367,105.026325 C96.2484018,104.253025 95.6704362,103.806086 94.9759128,103.694352" id="Fill-13" fill="#FFFFFF" mask="url(#mask-2)"></path>
            <path d="M73.8278364,114.93092 C74.154198,114.982366 74.4395636,115.22754 74.7008137,115.680909 C74.8647984,115.965471 75.2297447,116.062736 75.5151102,115.898751 C75.7996719,115.734767 75.8977411,115.36982 75.7329526,115.084455 C75.2876216,114.311958 74.7104598,113.864216 74.0159364,113.752481 C72.556955,113.52017 71.085112,114.837674 69.7893115,116.000036 C69.2780651,116.457425 68.7949533,116.890698 68.4589455,117.079602 C67.7515605,117.475898 67.1374218,117.560302 66.7732793,117.309502 C66.6792293,117.245194 66.6189408,117.170437 66.5827677,117.104521 C66.8456255,117.100502 67.0835641,116.922852 67.151891,116.655975 C67.2330795,116.336044 67.0401564,116.012094 66.7210293,115.930905 C66.0924213,115.770136 65.6704019,116.060325 65.4847134,116.385079 C65.2033671,116.876229 65.350471,117.585221 65.8327789,118.070745 C66.0072136,118.247591 66.4903254,118.64228 67.2981911,118.64228 C67.7684413,118.64228 68.3488185,118.508037 69.042538,118.119779 C69.4934959,117.866568 69.9991154,117.413198 70.5851195,116.888287 C71.5738507,116.00084 72.9315475,114.789443 73.8278364,114.93092" id="Fill-14" fill="#FFFFFF" mask="url(#mask-2)"></path>
            <path d="M80.7908353,114.88695 C81.1163931,114.9392 81.4025625,115.184373 81.6630087,115.637743 C81.8277973,115.923108 82.1927436,116.020373 82.4781091,115.855585 C82.7626708,115.6916 82.86074,115.326654 82.6959515,115.041288 C82.2506205,114.268792 81.6734587,113.820246 80.9781315,113.709315 C79.5183462,113.477003 78.0473071,114.793704 76.7507027,115.956066 C76.2402601,116.414258 75.7571484,116.846728 75.4211405,117.035632 C74.7137556,117.432732 74.0996169,117.516332 73.7362782,117.266336 C73.6414243,117.202028 73.5819397,117.12727 73.5457666,117.062159 C73.8078206,117.058139 74.046563,116.879685 74.1140861,116.612004 C74.1960784,116.292877 74.0031553,115.968927 73.6840282,115.887739 C73.0554202,115.727773 72.6334008,116.017158 72.4469084,116.341912 C72.166366,116.833062 72.3126661,117.542055 72.794974,118.027578 C72.9702125,118.204424 73.4525204,118.599113 74.2603862,118.599113 C74.7306364,118.599113 75.3118174,118.464871 76.0047331,118.075809 C76.4548872,117.822597 76.9613105,117.369228 77.5473146,116.844316 C78.5352419,115.957673 79.8873118,114.743865 80.7908353,114.88695" id="Fill-15" fill="#FFFFFF" mask="url(#mask-2)"></path>
            <path d="M87.8252961,114.980437 C88.1516578,115.032687 88.4370233,115.27786 88.6974696,115.73123 C88.8622581,116.015792 89.2272044,116.113057 89.51257,115.949072 C89.7979355,115.785088 89.8960047,115.420141 89.7312162,115.134776 C89.2858852,114.361475 88.7079196,113.913733 88.0133962,113.802802 C86.5528071,113.569687 85.0825718,114.887191 83.7859674,116.049553 C83.2755248,116.507746 82.7924131,116.940215 82.4564052,117.129119 C81.7498242,117.525415 81.1348816,117.609819 80.7715429,117.359019 C80.6774929,117.294711 80.6172044,117.220757 80.5810313,117.154842 C80.8438891,117.150823 81.0818277,116.973173 81.1501547,116.705492 C81.2313432,116.387169 81.03842,116.062415 80.7192929,115.980422 C80.0898811,115.820457 79.6686655,116.109842 79.482977,116.435399 C79.2016307,116.925746 79.3479308,117.634738 79.8302387,118.121066 C80.0046734,118.297108 80.4877851,118.6926 81.2956509,118.6926 C81.7659011,118.6926 82.3470821,118.558358 83.0408017,118.169296 C83.4909557,117.916085 83.9965752,117.463519 84.5825793,116.938607 C85.5705066,116.051161 86.9233803,114.838156 87.8252961,114.980437" id="Fill-16" fill="#FFFFFF" mask="url(#mask-2)"></path>
            <path d="M94.9759128,113.758912 C93.5153237,113.523385 92.0450884,114.843301 90.7492878,116.005663 C90.2372376,116.463856 89.7549297,116.896325 89.4189218,117.086033 C88.7123408,117.481525 88.0973982,117.565929 87.7332557,117.315933 C87.6400095,117.251625 87.579721,117.177671 87.5435479,117.111756 C87.8064057,117.107737 88.0443443,116.929283 88.1126713,116.662406 C88.1938598,116.343279 88.0009366,116.019328 87.6818095,115.937336 C87.0540054,115.776567 86.6303783,116.066755 86.4454936,116.390706 C86.1641473,116.881856 86.3104474,117.591652 86.7919514,118.077176 C86.96719,118.254022 87.4511056,118.64871 88.2581675,118.64871 C88.7284177,118.64871 89.3087949,118.514468 90.0025144,118.12621 C90.4534723,117.872999 90.9598956,117.419629 91.5450959,116.893913 C92.5338271,116.007271 93.8867008,114.792659 94.7878127,114.937351 C95.1149783,114.988797 95.3995399,115.234774 95.66079,115.686536 C95.8255786,115.971902 96.1905249,116.069971 96.4750866,115.905986 C96.7612559,115.741198 96.8585213,115.376251 96.6945367,115.090886 C96.2484018,114.317585 95.6704362,113.870647 94.9759128,113.758912" id="Fill-17" fill="#FFFFFF" mask="url(#mask-2)"></path>
            <path d="M67.2981911,98.5141236 C67.7684413,98.5141236 68.3488185,98.3798813 69.042538,97.9908196 C69.4934959,97.7376079 69.9991154,97.2842385 70.5851195,96.7585228 C71.5738507,95.8718801 72.9315475,94.6596796 73.8278364,94.8019604 C74.154198,94.8542104 74.4395636,95.0993836 74.7008137,95.5511454 C74.8647984,95.8373147 75.2297447,95.9345802 75.5151102,95.7705955 C75.7996719,95.6058069 75.8977411,95.2416645 75.7337564,94.9554951 C75.2876216,94.1829986 74.7104598,93.7352561 74.0159364,93.6243253 C72.556955,93.3887982 71.085112,94.7087142 69.7893115,95.8710763 C69.2780651,96.3292688 68.7949533,96.7617382 68.4589455,96.9506422 C67.7515605,97.3477423 67.1374218,97.4305385 66.7732793,97.1805423 C66.6792293,97.1162345 66.6197446,97.0414768 66.5827677,96.9763652 C66.8464294,96.972346 67.0835641,96.7930882 67.151891,96.5262112 C67.2330795,96.207888 67.0401564,95.883134 66.7210293,95.8019455 C66.0924213,95.64198 65.6704019,95.9313648 65.4847134,96.2553149 C65.2041709,96.747269 65.350471,97.4570655 65.8327789,97.9425888 C66.0072136,98.1186311 66.4903254,98.5141236 67.2981911,98.5141236" id="Fill-18" fill="#FFFFFF" mask="url(#mask-2)"></path>
            <path d="M73.7360371,97.1372149 C73.641987,97.0729072 73.5825024,96.9981495 73.5463293,96.9330379 C73.8083833,96.9290187 74.0471257,96.7505648 74.1146488,96.4836877 C74.1958373,96.1645607 74.0029141,95.8398067 73.6845909,95.7586182 C73.0551791,95.5986527 72.6331597,95.8880375 72.4466673,96.2127914 C72.1669287,96.7039417 72.3124249,97.4137381 72.7947328,97.8992614 C72.9699714,98.0753038 73.4522793,98.4699925 74.260145,98.4699925 C74.7303952,98.4699925 75.3115763,98.3365539 76.004492,97.9474922 C76.4554498,97.6942806 76.9618732,97.2409111 77.5470734,96.7159994 C78.5358046,95.8293567 79.8870706,94.6155484 80.7905941,94.7586331 C81.1169558,94.8100793 81.4023213,95.0560563 81.6627676,95.5086219 C81.8275561,95.7939874 82.1933063,95.8912528 82.4778679,95.7272681 C82.7624296,95.5624796 82.8613027,95.1983371 82.6957104,94.9121678 C82.2511832,94.1396713 81.6732176,93.6919288 80.9786942,93.5801941 C79.5181051,93.3486863 78.0470659,94.6653869 76.7504615,95.827749 C76.240019,96.2851376 75.7577111,96.7184109 75.4217032,96.9073148 C74.7143183,97.3036112 74.0993757,97.388015 73.7360371,97.1372149" id="Fill-19" fill="#FFFFFF" mask="url(#mask-2)"></path>
            <path d="M80.7712214,97.2306219 C80.6771714,97.1663142 80.6176867,97.0915565 80.5815136,97.025641 C80.8435676,97.0224257 81.08231,96.8439717 81.150637,96.5770947 C81.2310216,96.2579676 81.0380984,95.9332136 80.7197752,95.8520251 C80.0895596,95.6920597 79.668344,95.9806406 79.4826554,96.3061984 C79.202113,96.7965448 79.3476092,97.5063413 79.8299171,97.9918646 C80.0051557,98.1679069 80.4874636,98.5633994 81.2953293,98.5633994 C81.7655795,98.5633994 82.3467606,98.4291571 83.0396763,98.0400953 C83.4906342,97.7868837 83.9970575,97.3343181 84.5822577,96.8094063 C85.570989,95.9219598 86.9230588,94.7097592 87.8249746,94.8512362 C88.1521401,94.9034862 88.4367018,95.1494633 88.6971481,95.6020289 C88.8619366,95.8865905 89.2276868,95.983856 89.5122484,95.8198713 C89.7976139,95.6558866 89.8964871,95.2909403 89.7308947,95.0055747 C89.2863676,94.2330782 88.7075981,93.7853357 88.0138785,93.6736011 C86.5524856,93.4428971 85.0822503,94.7587939 83.7856458,95.9203521 C83.2752033,96.3785446 82.7928954,96.8118179 82.4568876,96.999918 C81.7495026,97.3970181 81.13456,97.4806182 80.7712214,97.2306219" id="Fill-20" fill="#FFFFFF" mask="url(#mask-2)"></path>
            <path d="M87.7334165,97.1866515 C87.6401703,97.1223438 87.5798818,97.0483899 87.5437087,96.9824745 C87.8065665,96.9784552 88.0445051,96.8008052 88.112832,96.5339281 C88.1940205,96.2139972 88.0010974,95.8900471 87.6819703,95.8080547 C87.0533623,95.6472854 86.630539,95.937474 86.4448505,96.2630319 C86.1643081,96.7533782 86.3098043,97.4623709 86.7921122,97.948698 C86.9673507,98.1247404 87.4504625,98.5202329 88.2575244,98.519429 C88.7277746,98.519429 89.3089556,98.3859905 90.0018713,97.9969288 C90.4536331,97.7437171 90.9600564,97.2903477 91.5452566,96.7654359 C92.5339879,95.8779894 93.8860577,94.6641811 94.7871696,94.8080697 C95.115139,94.8595158 95.3997007,95.1054929 95.660147,95.5580585 C95.8249355,95.843424 96.1906857,95.9406894 96.4752473,95.7767047 C96.7606128,95.6119162 96.8586821,95.2477737 96.6938936,94.9616043 C96.2485626,94.1891078 95.670597,93.7413653 94.9768774,93.6304345 C93.5146806,93.3957113 92.0444453,94.7148235 90.7494486,95.8763817 C90.2382022,96.3345742 89.7550905,96.7678475 89.4190826,96.9567514 C88.7125015,97.3530477 88.0975589,97.4374516 87.7334165,97.1866515" id="Fill-21" fill="#FFFFFF" mask="url(#mask-2)"></path>
            <path d="M118.748307,166.734327 L118.749111,166.733523 L118.748307,166.734327 Z" id="Fill-22" fill="#FFFFFF" mask="url(#mask-2)"></path>
            <path d="M128.507486,164.587333 C125.237438,164.587333 122.575903,161.927405 122.575903,158.658161 C122.575903,155.388917 125.237438,152.728185 128.507486,152.728185 C131.77673,152.728185 134.436658,155.388917 134.436658,158.658161 C134.436658,161.927405 131.77673,164.587333 128.507486,164.587333 M128.507486,151.176762 C124.382146,151.176762 121.026086,154.532821 121.026086,158.658161 C121.026086,162.782698 124.382146,166.137953 128.507486,166.137953 C132.631219,166.137953 135.986474,162.782698 135.986474,158.658161 C135.986474,154.532821 132.631219,151.176762 128.507486,151.176762" id="Fill-23" fill="#FFFFFF" mask="url(#mask-2)"></path>
            <path d="M128.504351,144.155162 C128.077508,144.155162 127.729443,144.503228 127.729443,144.93007 L127.729443,150.018419 L129.279259,150.018419 L129.279259,144.93007 C129.279259,144.503228 128.931193,144.155162 128.504351,144.155162" id="Fill-24" fill="#FFFFFF" mask="url(#mask-2)"></path>
            <path d="M128.504351,173.139938 C128.931193,173.139938 129.279259,172.791873 129.279259,172.36503 L129.279259,167.277486 L127.729443,167.277486 L127.729443,172.36503 C127.729443,172.791873 128.077508,173.139938 128.504351,173.139938" id="Fill-25" fill="#FFFFFF" mask="url(#mask-2)"></path>
            <path d="M142.414674,157.789927 L137.327933,157.789927 L137.327933,159.34135 L142.414674,159.34135 C142.841516,159.34135 143.189582,158.993285 143.189582,158.566442 C143.189582,158.138796 142.841516,157.789927 142.414674,157.789927" id="Fill-26" fill="#FFFFFF" mask="url(#mask-2)"></path>
            <path d="M113.692836,158.564754 C113.692836,158.993204 114.040901,159.34127 114.467744,159.34127 L119.555289,159.34127 L119.555289,157.789846 L114.467744,157.789846 C114.040901,157.789846 113.692836,158.137912 113.692836,158.564754" id="Fill-27" fill="#FFFFFF" mask="url(#mask-2)"></path>
            <path d="M137.432996,151.542029 C137.750515,151.256664 137.776238,150.765514 137.490069,150.448798 C137.351807,150.293656 137.161296,150.203625 136.954707,150.191567 C136.747315,150.181117 136.549568,150.251856 136.396034,150.389314 L134.451529,152.138484 L135.487687,153.292003 L137.432996,151.542029 Z" id="Fill-28" fill="#FFFFFF" mask="url(#mask-2)"></path>
            <path d="M120.503506,150.390439 C120.349167,150.252177 120.146598,150.182243 119.944029,150.191889 C119.73744,150.203947 119.546928,150.293977 119.408667,150.447512 C119.122498,150.765031 119.148221,151.256182 119.466544,151.543155 L121.411852,153.291521 L122.447207,152.138805 L120.503506,150.390439 Z" id="Fill-29" fill="#FFFFFF" mask="url(#mask-2)"></path>
            <path d="M119.015184,166.495665 C119.30055,166.81238 119.790092,166.838103 120.108415,166.553542 L122.053724,164.805979 L121.016762,163.654067 L119.073061,165.400826 C118.918722,165.539891 118.828692,165.728795 118.817438,165.936187 C118.80538,166.142776 118.876119,166.341326 119.01438,166.495665" id="Fill-30" fill="#FFFFFF" mask="url(#mask-2)"></path>
            <path d="M136.020798,163.653906 L134.98464,164.806622 L136.928341,166.553381 C137.246664,166.837943 137.737011,166.812219 138.021572,166.495504 C138.160638,166.341165 138.231376,166.142615 138.220122,165.936027 C138.209672,165.728634 138.118034,165.53973 137.964499,165.400665 L136.020798,163.653906 Z" id="Fill-31" fill="#FFFFFF" mask="url(#mask-2)"></path>
            <path d="M30.0064651,53.4931722 L26.4365827,53.4931722 L19.6826643,27.5393797 L19.6344335,27.5393797 L12.9769766,53.4931722 L9.40709424,53.4931722 L2.46025265,23.5828472 L0.00048230791,23.4381548 L0.00048230791,21.4132654 L7.86370893,21.4132654 L7.86370893,23.2452316 L6.46501599,23.4381548 C5.6442887,23.5354202 5.25844237,23.824805 5.25844237,24.5482668 C5.25844237,24.7886169 5.30667316,25.1744633 5.40393859,25.6093442 L11.2888989,51.1772904 L11.3853605,51.1772904 L18.1384751,24.1624205 L21.1786226,24.1624205 L28.221122,51.1772904 L28.2701566,51.1772904 L34.6374248,23.5828472 L32.2258853,23.4381548 L32.2258853,21.4132654 L39.3656501,21.4132654 L39.3656501,23.2452316 L38.255538,23.389924 C37.339153,23.4871894 37.0015374,23.9204627 36.6156911,25.5120788 L30.0064651,53.4931722 Z" id="Fill-32" fill="#FFFFFF" mask="url(#mask-2)"></path>
            <path d="M69.1311219,50.0674195 C69.1311219,51.1284969 69.3240451,51.4661124 70.2404301,51.5151471 L71.6399269,51.6108048 L71.6399269,53.4934133 L66.7187785,53.4934133 L66.7187785,49.9717618 L66.622317,49.9717618 C64.8377777,52.91384 61.8466648,54.1686444 58.9520135,54.1686444 C53.6940534,54.1686444 51.0895907,51.4661124 51.0895907,46.2081524 L51.0895907,33.279085 C51.0895907,32.1705807 50.8476329,31.9294267 49.8830171,31.8803921 L48.4360934,31.7847343 L48.4360934,29.7574334 L53.5011303,29.7574334 L53.5011303,45.0023826 C53.5011303,49.6815732 54.7077039,51.9009934 59.0484751,51.9009934 C64.0652812,51.9009934 66.7187785,47.9934955 66.7187785,44.2789207 L66.7187785,33.279085 C66.7187785,32.1223499 66.4301976,31.9294267 65.464778,31.8803921 L64.0652812,31.7847343 L64.0652812,29.7574334 L69.1311219,29.7574334 L69.1311219,50.0674195 Z" id="Fill-33" fill="#FFFFFF" mask="url(#mask-2)"></path>
            <path d="M89.0075132,51.2731893 L91.564549,51.4194893 L91.564549,53.4934133 L84.0871687,53.4934133 L84.0871687,51.6590356 L85.2929384,51.5151471 C86.2101273,51.4194893 86.5959736,51.1284969 86.5959736,49.9227271 L86.5959736,22.6192763 C86.5959736,21.4601297 86.3065889,21.2672065 85.3894,21.2197796 L83.9424763,21.1225141 L83.9424763,19.0976248 L89.0075132,19.0976248 L89.0075132,51.2731893 Z" id="Fill-34" fill="#FFFFFF" mask="url(#mask-2)"></path>
            <path d="M108.449747,49.054814 C110.041363,50.9358149 112.839553,51.9012345 115.010742,51.9012345 C120.365164,51.9012345 122.535549,46.98089 122.535549,41.4327414 C122.535549,34.8709423 120.509856,31.3500945 115.734204,31.3500945 C110.523671,31.3500945 108.449747,35.0646693 108.449747,38.7302094 L108.449747,49.054814 Z M106.037404,33.2793262 C106.037404,32.2182488 105.79625,31.928864 104.831634,31.8806332 L103.383906,31.7849755 L103.383906,29.7576746 L108.256824,29.7576746 L108.256824,33.038976 L108.353285,33.038976 C110.378979,29.7576746 113.419126,29.0342127 115.927127,29.0342127 C122.729276,29.0342127 125.189047,34.002788 125.189047,41.5766299 C125.189047,50.5491647 119.882856,54.1680817 115.251896,54.1680817 C112.309014,54.1680817 110.186055,53.0579697 108.546209,51.8039691 L108.449747,51.8039691 L108.449747,61.2604195 L111.971399,61.4533427 L111.971399,63.4782321 L103.529402,63.4782321 L103.529402,61.6462659 L104.735172,61.4999658 C105.652361,61.4043081 106.037404,61.1157272 106.037404,59.9083497 L106.037404,33.2793262 Z" id="Fill-35" fill="#FFFFFF" mask="url(#mask-2)"></path>
            <path d="M154.472372,45.0983619 L154.472372,32.7014409 C153.217567,32.0246021 151.433832,31.3493711 148.49095,31.3493711 C142.798912,31.3493711 140.386569,36.0767924 140.386569,42.2519414 C140.386569,46.9809704 141.6888,51.9013149 147.236145,51.9013149 C152.109063,51.9013149 154.472372,48.3796633 154.472372,45.0983619 M157.945792,51.5146648 L159.392716,51.6111263 L159.392716,53.492931 L154.665295,53.492931 L154.665295,50.4535874 L154.521406,50.4053566 C152.590567,53.3956656 149.696719,54.1681621 147.139684,54.1681621 C141.447646,54.1681621 137.733072,50.7421683 137.733072,42.3982414 C137.733072,34.1001338 141.6888,29.0342931 148.683873,29.0342931 C151.191874,29.0342931 153.025448,29.5174048 154.472372,30.1436013 L154.472372,22.618794 C154.472372,21.508682 154.231218,21.267528 153.266602,21.2201011 L151.818874,21.1228357 L151.818874,19.0971425 L156.884715,19.0971425 L156.884715,49.9712794 C156.884715,51.0331607 156.981177,51.466434 157.945792,51.5146648" id="Fill-36" fill="#FFFFFF" mask="url(#mask-2)"></path>
            <path d="M188.434887,32.315273 C187.470271,31.8803921 185.588466,31.3498534 183.031431,31.3498534 C176.423008,31.3498534 174.349084,36.7533096 174.349084,42.3979199 C174.349084,47.0280758 175.699547,51.9009934 181.15043,51.9009934 C185.877851,51.9009934 188.434887,48.6196919 188.434887,45.0023826 L188.434887,32.315273 Z M190.84723,50.2121119 C190.84723,51.1284969 191.088384,51.4661124 191.860077,51.5151471 L193.500728,51.6108048 L193.500728,53.4934133 L188.62781,53.4934133 L188.62781,50.4532658 L188.483921,50.405035 C187.373809,52.1413435 185.20262,54.1686444 181.15043,54.1686444 C174.685896,54.1686444 171.695587,49.8270694 171.695587,42.63827 C171.695587,34.1006161 175.410162,29.0339715 183.127892,29.0339715 C185.154389,29.0339715 188.434887,29.5178872 190.84723,30.4816991 L190.84723,50.2121119 Z" id="Fill-37" fill="#FFFFFF" mask="url(#mask-2)"></path>
            <path d="M210.385202,51.2731893 L212.942238,51.4194893 L212.942238,53.4934133 L205.464858,53.4934133 L205.464858,51.6590356 L206.670627,51.5151471 C207.587816,51.4194893 207.973663,51.1284969 207.973663,49.9227271 L207.973663,22.6192763 C207.973663,21.4601297 207.684278,21.2672065 206.767089,21.2197796 L205.320165,21.1225141 L205.320165,19.0976248 L210.385202,19.0976248 L210.385202,51.2731893 Z" id="Fill-38" fill="#FFFFFF" mask="url(#mask-2)"></path>
            <polygon id="Fill-39" fill="#FFFFFF" mask="url(#mask-2)" points="44.5604278 9.38683731 40.751803 -0.00048230791 41.9045189 -0.00048230791 45.1367857 8.17945984 48.382718 -0.00048230791 49.5089069 -0.00048230791 45.6737552 9.38683731"></polygon>
            <path d="M56.9784899,1.16622053 L54.8732159,5.9941227 L59.1110947,5.9941227 L56.9784899,1.16622053 Z M54.4302965,6.9860693 L53.3844921,9.38715885 L52.2438339,9.38715885 L56.4559897,-0.000160769303 L57.5685133,-0.000160769303 L61.7661998,9.38715885 L60.5998185,9.38715885 L59.5403488,6.9860693 L54.4302965,6.9860693 Z" id="Fill-40" fill="#FFFFFF" mask="url(#mask-2)"></path>
            <polygon id="Fill-41" fill="#FFFFFF" mask="url(#mask-2)" points="69.3580478 4.92171106 67.5341201 6.93293505 67.5341201 9.38707846 66.460985 9.38707846 66.460985 -0.000241153955 67.5341201 -0.000241153955 67.5341201 5.45707284 72.5774531 -0.000241153955 73.8515498 -0.000241153955 70.1225058 4.08972992 74.1320923 9.38707846 72.8186071 9.38707846"></polygon>
            <path d="M82.4205537,1.16622053 L80.3152797,5.9941227 L84.5531585,5.9941227 L82.4205537,1.16622053 Z M79.8723602,6.9860693 L78.8265559,9.38715885 L77.6858977,9.38715885 L81.8980535,-0.000160769303 L83.010577,-0.000160769303 L87.2082635,9.38715885 L86.0418822,9.38715885 L84.9824125,6.9860693 L79.8723602,6.9860693 Z" id="Fill-42" fill="#FFFFFF" mask="url(#mask-2)"></path>
            <polygon id="Fill-43" fill="#FFFFFF" mask="url(#mask-2)" points="98.6081737 9.38683731 92.9756211 1.76878387 92.9756211 9.38683731 91.902486 9.38683731 91.902486 -0.00048230791 93.0158135 -0.00048230791 98.6491698 7.62962882 98.6491698 -0.00048230791 99.7078357 -0.00048230791 99.7078357 9.38683731"></polygon>
            <polygon id="Fill-44" fill="#FFFFFF" mask="url(#mask-2)" points="108.6405 0.991946601 108.6405 9.38651577 107.567365 9.38651577 107.567365 0.991946601 104.509532 0.991946601 104.509532 0 111.711193 0 111.711193 0.991946601"></polygon>
            <polygon id="Fill-45" fill="#FFFFFF" mask="url(#mask-2)" points="116.486203 9.38731962 117.559338 9.38731962 117.559338 0 116.486203 0"></polygon>
            <polygon id="Fill-46" fill="#FFFFFF" mask="url(#mask-2)" points="124.693877 0.991946601 124.693877 4.14302494 129.428533 4.14302494 129.428533 5.12291385 124.693877 5.12291385 124.693877 8.39456917 130.165661 8.39456917 130.165661 9.38651577 123.620742 9.38651577 123.620742 0 129.991226 0 129.991226 0.991946601"></polygon>
            <path d="M136.64402,5.41784513 L139.057972,5.41784513 C139.907637,5.41784513 140.56438,5.22813736 141.029003,4.84791795 C141.49443,4.46769855 141.726742,3.91063292 141.726742,3.17752489 C141.726742,2.46290534 141.49443,1.9195051 141.029003,1.54812801 C140.56438,1.17755476 139.907637,0.991866216 139.057972,0.991866216 L136.64402,0.991866216 L136.64402,5.41784513 Z M141.800696,0.823862294 C142.439754,1.37369331 142.758881,2.1494052 142.758881,3.15099796 C142.758881,4.17911765 142.439754,4.97974878 141.800696,5.55128366 C141.160834,6.12442622 140.260526,6.40979174 139.098164,6.40979174 L136.64402,6.40979174 L136.64402,9.38643538 L135.570885,9.38643538 L135.570885,-8.03846516e-05 L139.098164,-8.03846516e-05 C140.260526,-8.03846516e-05 141.160834,0.274835124 141.800696,0.823862294 Z" id="Fill-47" fill="#FFFFFF" mask="url(#mask-2)"></path>
            <path d="M150.604584,1.16622053 L148.49931,5.9941227 L152.737188,5.9941227 L150.604584,1.16622053 Z M148.05639,6.9860693 L147.010586,9.38715885 L145.869928,9.38715885 L150.082083,-0.000160769303 L151.194607,-0.000160769303 L155.392294,9.38715885 L154.225912,9.38715885 L153.166442,6.9860693 L148.05639,6.9860693 Z" id="Fill-48" fill="#FFFFFF" mask="url(#mask-2)"></path>
            <path d="M165.632012,4.84791795 C166.092616,4.46769855 166.322516,3.91063292 166.322516,3.17752489 C166.322516,2.46290534 166.092616,1.9195051 165.632012,1.54812801 C165.172212,1.17755476 164.512254,0.991866216 163.653746,0.991866216 L161.160214,0.991866216 L161.160214,5.41784513 L163.653746,5.41784513 C164.512254,5.41784513 165.172212,5.22813736 165.632012,4.84791795 Z M164.257434,6.3832648 C164.007438,6.40094942 163.806477,6.40979174 163.653746,6.40979174 L161.160214,6.40979174 L161.160214,9.38643538 L160.087079,9.38643538 L160.087079,-8.03846516e-05 L163.653746,-8.03846516e-05 C164.82495,-8.03846516e-05 165.734904,0.274835124 166.383608,0.823862294 C167.031509,1.37369331 167.356263,2.1494052 167.356263,3.15099796 C167.356263,3.92027907 167.172182,4.56335629 166.805628,5.08183729 C166.439074,5.60112214 165.916574,5.96767615 165.236519,6.18230317 L167.449509,9.38643538 L166.22927,9.38643538 L164.257434,6.3832648 Z" id="Fill-49" fill="#FFFFFF" mask="url(#mask-2)"></path>
            <polygon id="Fill-50" fill="#FFFFFF" mask="url(#mask-2)" points="175.899061 4.92171106 174.075133 6.93293505 174.075133 9.38707846 173.001998 9.38707846 173.001998 -0.000241153955 174.075133 -0.000241153955 174.075133 5.45707284 179.118467 -0.000241153955 180.392563 -0.000241153955 176.663519 4.08972992 180.673106 9.38707846 179.35962 9.38707846"></polygon>
        </g>
    </g>
</svg>